[
  {
    "starships" : [
      "http:\/\/swapi.co\/api\/starships\/12\/",
      "http:\/\/swapi.co\/api\/starships\/22\/"
    ],
    "homeworld" : "http:\/\/swapi.co\/api\/planets\/1\/",
    "vehicles" : [
      "http:\/\/swapi.co\/api\/vehicles\/14\/",
      "http:\/\/swapi.co\/api\/vehicles\/30\/"
    ],
    "species" : [
      "http:\/\/swapi.co\/api\/species\/1\/"
    ],
    "birth_year" : "19BBY",
    "skin_color" : "fair",
    "name" : "Luke Skywalker",
    "eye_color" : "blue",
    "hair_color" : "blond",
    "gender" : "male",
    "edited" : "2014-12-20T21:17:56.891000Z",
    "height" : "172",
    "created" : "2014-12-09T13:50:51.644000Z",
    "mass" : "77",
    "films" : [
      "http:\/\/swapi.co\/api\/films\/7\/",
      "http:\/\/swapi.co\/api\/films\/6\/",
      "http:\/\/swapi.co\/api\/films\/3\/",
      "http:\/\/swapi.co\/api\/films\/2\/",
      "http:\/\/swapi.co\/api\/films\/1\/"
    ],
    "url" : "http:\/\/swapi.co\/api\/people\/1\/"
  },
  {
    "starships" : [

    ],
    "homeworld" : "http:\/\/swapi.co\/api\/planets\/1\/",
    "vehicles" : [

    ],
    "species" : [
      "http:\/\/swapi.co\/api\/species\/2\/"
    ],
    "birth_year" : "112BBY",
    "skin_color" : "gold",
    "name" : "C-3PO",
    "eye_color" : "yellow",
    "hair_color" : "n\/a",
    "gender" : "n\/a",
    "edited" : "2014-12-20T21:17:50.309000Z",
    "height" : "167",
    "created" : "2014-12-10T15:10:51.357000Z",
    "mass" : "75",
    "films" : [
      "http:\/\/swapi.co\/api\/films\/5\/",
      "http:\/\/swapi.co\/api\/films\/4\/",
      "http:\/\/swapi.co\/api\/films\/6\/",
      "http:\/\/swapi.co\/api\/films\/3\/",
      "http:\/\/swapi.co\/api\/films\/2\/",
      "http:\/\/swapi.co\/api\/films\/1\/"
    ],
    "url" : "http:\/\/swapi.co\/api\/people\/2\/"
  },
  {
    "starships" : [

    ],
    "homeworld" : "http:\/\/swapi.co\/api\/planets\/8\/",
    "vehicles" : [

    ],
    "species" : [
      "http:\/\/swapi.co\/api\/species\/2\/"
    ],
    "birth_year" : "33BBY",
    "skin_color" : "white, blue",
    "name" : "R2-D2",
    "eye_color" : "red",
    "hair_color" : "n\/a",
    "gender" : "n\/a",
    "edited" : "2014-12-20T21:17:50.311000Z",
    "height" : "96",
    "created" : "2014-12-10T15:11:50.376000Z",
    "mass" : "32",
    "films" : [
      "http:\/\/swapi.co\/api\/films\/7\/",
      "http:\/\/swapi.co\/api\/films\/5\/",
      "http:\/\/swapi.co\/api\/films\/4\/",
      "http:\/\/swapi.co\/api\/films\/6\/",
      "http:\/\/swapi.co\/api\/films\/3\/",
      "http:\/\/swapi.co\/api\/films\/2\/",
      "http:\/\/swapi.co\/api\/films\/1\/"
    ],
    "url" : "http:\/\/swapi.co\/api\/people\/3\/"
  },
  {
    "starships" : [
      "http:\/\/swapi.co\/api\/starships\/13\/"
    ],
    "homeworld" : "http:\/\/swapi.co\/api\/planets\/1\/",
    "vehicles" : [

    ],
    "species" : [
      "http:\/\/swapi.co\/api\/species\/1\/"
    ],
    "birth_year" : "41.9BBY",
    "skin_color" : "white",
    "name" : "Darth Vader",
    "eye_color" : "yellow",
    "hair_color" : "none",
    "gender" : "male",
    "edited" : "2014-12-20T21:17:50.313000Z",
    "height" : "202",
    "created" : "2014-12-10T15:18:20.704000Z",
    "mass" : "136",
    "films" : [
      "http:\/\/swapi.co\/api\/films\/6\/",
      "http:\/\/swapi.co\/api\/films\/3\/",
      "http:\/\/swapi.co\/api\/films\/2\/",
      "http:\/\/swapi.co\/api\/films\/1\/"
    ],
    "url" : "http:\/\/swapi.co\/api\/people\/4\/"
  },
  {
    "starships" : [

    ],
    "homeworld" : "http:\/\/swapi.co\/api\/planets\/2\/",
    "vehicles" : [
      "http:\/\/swapi.co\/api\/vehicles\/30\/"
    ],
    "species" : [
      "http:\/\/swapi.co\/api\/species\/1\/"
    ],
    "birth_year" : "19BBY",
    "skin_color" : "light",
    "name" : "Leia Organa",
    "eye_color" : "brown",
    "hair_color" : "brown",
    "gender" : "female",
    "edited" : "2014-12-20T21:17:50.315000Z",
    "height" : "150",
    "created" : "2014-12-10T15:20:09.791000Z",
    "mass" : "49",
    "films" : [
      "http:\/\/swapi.co\/api\/films\/6\/",
      "http:\/\/swapi.co\/api\/films\/3\/",
      "http:\/\/swapi.co\/api\/films\/2\/",
      "http:\/\/swapi.co\/api\/films\/1\/"
    ],
    "url" : "http:\/\/swapi.co\/api\/people\/5\/"
  },
  {
    "starships" : [

    ],
    "homeworld" : "http:\/\/swapi.co\/api\/planets\/1\/",
    "vehicles" : [

    ],
    "species" : [
      "http:\/\/swapi.co\/api\/species\/1\/"
    ],
    "birth_year" : "52BBY",
    "skin_color" : "light",
    "name" : "Owen Lars",
    "eye_color" : "blue",
    "hair_color" : "brown, grey",
    "gender" : "male",
    "edited" : "2014-12-20T21:17:50.317000Z",
    "height" : "178",
    "created" : "2014-12-10T15:52:14.024000Z",
    "mass" : "120",
    "films" : [
      "http:\/\/swapi.co\/api\/films\/5\/",
      "http:\/\/swapi.co\/api\/films\/6\/",
      "http:\/\/swapi.co\/api\/films\/1\/"
    ],
    "url" : "http:\/\/swapi.co\/api\/people\/6\/"
  },
  {
    "starships" : [

    ],
    "homeworld" : "http:\/\/swapi.co\/api\/planets\/1\/",
    "vehicles" : [

    ],
    "species" : [
      "http:\/\/swapi.co\/api\/species\/1\/"
    ],
    "birth_year" : "47BBY",
    "skin_color" : "light",
    "name" : "Beru Whitesun Lars",
    "eye_color" : "blue",
    "hair_color" : "brown",
    "gender" : "female",
    "edited" : "2014-12-20T21:17:50.319000Z",
    "height" : "165",
    "created" : "2014-12-10T15:53:41.121000Z",
    "mass" : "75",
    "films" : [
      "http:\/\/swapi.co\/api\/films\/5\/",
      "http:\/\/swapi.co\/api\/films\/6\/",
      "http:\/\/swapi.co\/api\/films\/1\/"
    ],
    "url" : "http:\/\/swapi.co\/api\/people\/7\/"
  },
  {
    "starships" : [

    ],
    "homeworld" : "http:\/\/swapi.co\/api\/planets\/1\/",
    "vehicles" : [

    ],
    "species" : [
      "http:\/\/swapi.co\/api\/species\/2\/"
    ],
    "birth_year" : "unknown",
    "skin_color" : "white, red",
    "name" : "R5-D4",
    "eye_color" : "red",
    "hair_color" : "n\/a",
    "gender" : "n\/a",
    "edited" : "2014-12-20T21:17:50.321000Z",
    "height" : "97",
    "created" : "2014-12-10T15:57:50.959000Z",
    "mass" : "32",
    "films" : [
      "http:\/\/swapi.co\/api\/films\/1\/"
    ],
    "url" : "http:\/\/swapi.co\/api\/people\/8\/"
  },
  {
    "starships" : [
      "http:\/\/swapi.co\/api\/starships\/12\/"
    ],
    "homeworld" : "http:\/\/swapi.co\/api\/planets\/1\/",
    "vehicles" : [

    ],
    "species" : [
      "http:\/\/swapi.co\/api\/species\/1\/"
    ],
    "birth_year" : "24BBY",
    "skin_color" : "light",
    "name" : "Biggs Darklighter",
    "eye_color" : "brown",
    "hair_color" : "black",
    "gender" : "male",
    "edited" : "2014-12-20T21:17:50.323000Z",
    "height" : "183",
    "created" : "2014-12-10T15:59:50.509000Z",
    "mass" : "84",
    "films" : [
      "http:\/\/swapi.co\/api\/films\/1\/"
    ],
    "url" : "http:\/\/swapi.co\/api\/people\/9\/"
  },
  {
    "starships" : [
      "http:\/\/swapi.co\/api\/starships\/48\/",
      "http:\/\/swapi.co\/api\/starships\/59\/",
      "http:\/\/swapi.co\/api\/starships\/64\/",
      "http:\/\/swapi.co\/api\/starships\/65\/",
      "http:\/\/swapi.co\/api\/starships\/74\/"
    ],
    "homeworld" : "http:\/\/swapi.co\/api\/planets\/20\/",
    "vehicles" : [
      "http:\/\/swapi.co\/api\/vehicles\/38\/"
    ],
    "species" : [
      "http:\/\/swapi.co\/api\/species\/1\/"
    ],
    "birth_year" : "57BBY",
    "skin_color" : "fair",
    "name" : "Obi-Wan Kenobi",
    "eye_color" : "blue-gray",
    "hair_color" : "auburn, white",
    "gender" : "male",
    "edited" : "2014-12-20T21:17:50.325000Z",
    "height" : "182",
    "created" : "2014-12-10T16:16:29.192000Z",
    "mass" : "77",
    "films" : [
      "http:\/\/swapi.co\/api\/films\/5\/",
      "http:\/\/swapi.co\/api\/films\/4\/",
      "http:\/\/swapi.co\/api\/films\/6\/",
      "http:\/\/swapi.co\/api\/films\/3\/",
      "http:\/\/swapi.co\/api\/films\/2\/",
      "http:\/\/swapi.co\/api\/films\/1\/"
    ],
    "url" : "http:\/\/swapi.co\/api\/people\/10\/"
  },
  {
    "starships" : [
      "http:\/\/swapi.co\/api\/starships\/39\/",
      "http:\/\/swapi.co\/api\/starships\/59\/",
      "http:\/\/swapi.co\/api\/starships\/65\/"
    ],
    "homeworld" : "http:\/\/swapi.co\/api\/planets\/1\/",
    "vehicles" : [
      "http:\/\/swapi.co\/api\/vehicles\/44\/",
      "http:\/\/swapi.co\/api\/vehicles\/46\/"
    ],
    "species" : [
      "http:\/\/swapi.co\/api\/species\/1\/"
    ],
    "birth_year" : "41.9BBY",
    "skin_color" : "fair",
    "name" : "Anakin Skywalker",
    "eye_color" : "blue",
    "hair_color" : "blond",
    "gender" : "male",
    "edited" : "2014-12-20T21:17:50.327000Z",
    "height" : "188",
    "created" : "2014-12-10T16:20:44.310000Z",
    "mass" : "84",
    "films" : [
      "http:\/\/swapi.co\/api\/films\/5\/",
      "http:\/\/swapi.co\/api\/films\/4\/",
      "http:\/\/swapi.co\/api\/films\/6\/"
    ],
    "url" : "http:\/\/swapi.co\/api\/people\/11\/"
  },
  {
    "starships" : [

    ],
    "homeworld" : "http:\/\/swapi.co\/api\/planets\/21\/",
    "vehicles" : [

    ],
    "species" : [
      "http:\/\/swapi.co\/api\/species\/1\/"
    ],
    "birth_year" : "64BBY",
    "skin_color" : "fair",
    "name" : "Wilhuff Tarkin",
    "eye_color" : "blue",
    "hair_color" : "auburn, grey",
    "gender" : "male",
    "edited" : "2014-12-20T21:17:50.330000Z",
    "height" : "180",
    "created" : "2014-12-10T16:26:56.138000Z",
    "mass" : "unknown",
    "films" : [
      "http:\/\/swapi.co\/api\/films\/1\/",
      "http:\/\/swapi.co\/api\/films\/6\/"
    ],
    "url" : "http:\/\/swapi.co\/api\/people\/12\/"
  },
  {
    "starships" : [
      "http:\/\/swapi.co\/api\/starships\/10\/",
      "http:\/\/swapi.co\/api\/starships\/22\/"
    ],
    "homeworld" : "http:\/\/swapi.co\/api\/planets\/14\/",
    "vehicles" : [
      "http:\/\/swapi.co\/api\/vehicles\/19\/"
    ],
    "species" : [
      "http:\/\/swapi.co\/api\/species\/3\/"
    ],
    "birth_year" : "200BBY",
    "skin_color" : "unknown",
    "name" : "Chewbacca",
    "eye_color" : "blue",
    "hair_color" : "brown",
    "gender" : "male",
    "edited" : "2014-12-20T21:17:50.332000Z",
    "height" : "228",
    "created" : "2014-12-10T16:42:45.066000Z",
    "mass" : "112",
    "films" : [
      "http:\/\/swapi.co\/api\/films\/7\/",
      "http:\/\/swapi.co\/api\/films\/6\/",
      "http:\/\/swapi.co\/api\/films\/3\/",
      "http:\/\/swapi.co\/api\/films\/2\/",
      "http:\/\/swapi.co\/api\/films\/1\/"
    ],
    "url" : "http:\/\/swapi.co\/api\/people\/13\/"
  },
  {
    "starships" : [
      "http:\/\/swapi.co\/api\/starships\/10\/",
      "http:\/\/swapi.co\/api\/starships\/22\/"
    ],
    "homeworld" : "http:\/\/swapi.co\/api\/planets\/22\/",
    "vehicles" : [

    ],
    "species" : [
      "http:\/\/swapi.co\/api\/species\/1\/"
    ],
    "birth_year" : "29BBY",
    "skin_color" : "fair",
    "name" : "Han Solo",
    "eye_color" : "brown",
    "hair_color" : "brown",
    "gender" : "male",
    "edited" : "2014-12-20T21:17:50.334000Z",
    "height" : "180",
    "created" : "2014-12-10T16:49:14.582000Z",
    "mass" : "80",
    "films" : [
      "http:\/\/swapi.co\/api\/films\/7\/",
      "http:\/\/swapi.co\/api\/films\/3\/",
      "http:\/\/swapi.co\/api\/films\/2\/",
      "http:\/\/swapi.co\/api\/films\/1\/"
    ],
    "url" : "http:\/\/swapi.co\/api\/people\/14\/"
  },
  {
    "starships" : [

    ],
    "homeworld" : "http:\/\/swapi.co\/api\/planets\/23\/",
    "vehicles" : [

    ],
    "species" : [
      "http:\/\/swapi.co\/api\/species\/4\/"
    ],
    "birth_year" : "44BBY",
    "skin_color" : "green",
    "name" : "Greedo",
    "eye_color" : "black",
    "hair_color" : "n\/a",
    "gender" : "male",
    "edited" : "2014-12-20T21:17:50.336000Z",
    "height" : "173",
    "created" : "2014-12-10T17:03:30.334000Z",
    "mass" : "74",
    "films" : [
      "http:\/\/swapi.co\/api\/films\/1\/"
    ],
    "url" : "http:\/\/swapi.co\/api\/people\/15\/"
  },
  {
    "starships" : [

    ],
    "homeworld" : "http:\/\/swapi.co\/api\/planets\/24\/",
    "vehicles" : [

    ],
    "species" : [
      "http:\/\/swapi.co\/api\/species\/5\/"
    ],
    "birth_year" : "600BBY",
    "skin_color" : "green-tan, brown",
    "name" : "Jabba Desilijic Tiure",
    "eye_color" : "orange",
    "hair_color" : "n\/a",
    "gender" : "hermaphrodite",
    "edited" : "2014-12-20T21:17:50.338000Z",
    "height" : "175",
    "created" : "2014-12-10T17:11:31.638000Z",
    "mass" : "1,358",
    "films" : [
      "http:\/\/swapi.co\/api\/films\/4\/",
      "http:\/\/swapi.co\/api\/films\/3\/",
      "http:\/\/swapi.co\/api\/films\/1\/"
    ],
    "url" : "http:\/\/swapi.co\/api\/people\/16\/"
  },
  {
    "starships" : [
      "http:\/\/swapi.co\/api\/starships\/12\/"
    ],
    "homeworld" : "http:\/\/swapi.co\/api\/planets\/22\/",
    "vehicles" : [
      "http:\/\/swapi.co\/api\/vehicles\/14\/"
    ],
    "species" : [
      "http:\/\/swapi.co\/api\/species\/1\/"
    ],
    "birth_year" : "21BBY",
    "skin_color" : "fair",
    "name" : "Wedge Antilles",
    "eye_color" : "hazel",
    "hair_color" : "brown",
    "gender" : "male",
    "edited" : "2014-12-20T21:17:50.341000Z",
    "height" : "170",
    "created" : "2014-12-12T11:08:06.469000Z",
    "mass" : "77",
    "films" : [
      "http:\/\/swapi.co\/api\/films\/3\/",
      "http:\/\/swapi.co\/api\/films\/2\/",
      "http:\/\/swapi.co\/api\/films\/1\/"
    ],
    "url" : "http:\/\/swapi.co\/api\/people\/18\/"
  },
  {
    "starships" : [
      "http:\/\/swapi.co\/api\/starships\/12\/"
    ],
    "homeworld" : "http:\/\/swapi.co\/api\/planets\/26\/",
    "vehicles" : [

    ],
    "species" : [
      "http:\/\/swapi.co\/api\/species\/1\/"
    ],
    "birth_year" : "unknown",
    "skin_color" : "fair",
    "name" : "Jek Tono Porkins",
    "eye_color" : "blue",
    "hair_color" : "brown",
    "gender" : "male",
    "edited" : "2014-12-20T21:17:50.343000Z",
    "height" : "180",
    "created" : "2014-12-12T11:16:56.569000Z",
    "mass" : "110",
    "films" : [
      "http:\/\/swapi.co\/api\/films\/1\/"
    ],
    "url" : "http:\/\/swapi.co\/api\/people\/19\/"
  },
  {
    "starships" : [

    ],
    "homeworld" : "http:\/\/swapi.co\/api\/planets\/28\/",
    "vehicles" : [

    ],
    "species" : [
      "http:\/\/swapi.co\/api\/species\/6\/"
    ],
    "birth_year" : "896BBY",
    "skin_color" : "green",
    "name" : "Yoda",
    "eye_color" : "brown",
    "hair_color" : "white",
    "gender" : "male",
    "edited" : "2014-12-20T21:17:50.345000Z",
    "height" : "66",
    "created" : "2014-12-15T12:26:01.042000Z",
    "mass" : "17",
    "films" : [
      "http:\/\/swapi.co\/api\/films\/5\/",
      "http:\/\/swapi.co\/api\/films\/4\/",
      "http:\/\/swapi.co\/api\/films\/6\/",
      "http:\/\/swapi.co\/api\/films\/3\/",
      "http:\/\/swapi.co\/api\/films\/2\/"
    ],
    "url" : "http:\/\/swapi.co\/api\/people\/20\/"
  },
  {
    "starships" : [

    ],
    "homeworld" : "http:\/\/swapi.co\/api\/planets\/8\/",
    "vehicles" : [

    ],
    "species" : [
      "http:\/\/swapi.co\/api\/species\/1\/"
    ],
    "birth_year" : "82BBY",
    "skin_color" : "pale",
    "name" : "Palpatine",
    "eye_color" : "yellow",
    "hair_color" : "grey",
    "gender" : "male",
    "edited" : "2014-12-20T21:17:50.347000Z",
    "height" : "170",
    "created" : "2014-12-15T12:48:05.971000Z",
    "mass" : "75",
    "films" : [
      "http:\/\/swapi.co\/api\/films\/5\/",
      "http:\/\/swapi.co\/api\/films\/4\/",
      "http:\/\/swapi.co\/api\/films\/6\/",
      "http:\/\/swapi.co\/api\/films\/3\/",
      "http:\/\/swapi.co\/api\/films\/2\/"
    ],
    "url" : "http:\/\/swapi.co\/api\/people\/21\/"
  },
  {
    "starships" : [
      "http:\/\/swapi.co\/api\/starships\/21\/"
    ],
    "homeworld" : "http:\/\/swapi.co\/api\/planets\/10\/",
    "vehicles" : [

    ],
    "species" : [
      "http:\/\/swapi.co\/api\/species\/1\/"
    ],
    "birth_year" : "31.5BBY",
    "skin_color" : "fair",
    "name" : "Boba Fett",
    "eye_color" : "brown",
    "hair_color" : "black",
    "gender" : "male",
    "edited" : "2014-12-20T21:17:50.349000Z",
    "height" : "183",
    "created" : "2014-12-15T12:49:32.457000Z",
    "mass" : "78.2",
    "films" : [
      "http:\/\/swapi.co\/api\/films\/5\/",
      "http:\/\/swapi.co\/api\/films\/3\/",
      "http:\/\/swapi.co\/api\/films\/2\/"
    ],
    "url" : "http:\/\/swapi.co\/api\/people\/22\/"
  },
  {
    "starships" : [

    ],
    "homeworld" : "http:\/\/swapi.co\/api\/planets\/28\/",
    "vehicles" : [

    ],
    "species" : [
      "http:\/\/swapi.co\/api\/species\/2\/"
    ],
    "birth_year" : "15BBY",
    "skin_color" : "metal",
    "name" : "IG-88",
    "eye_color" : "red",
    "hair_color" : "none",
    "gender" : "none",
    "edited" : "2014-12-20T21:17:50.351000Z",
    "height" : "200",
    "created" : "2014-12-15T12:51:10.076000Z",
    "mass" : "140",
    "films" : [
      "http:\/\/swapi.co\/api\/films\/2\/"
    ],
    "url" : "http:\/\/swapi.co\/api\/people\/23\/"
  },
  {
    "starships" : [

    ],
    "homeworld" : "http:\/\/swapi.co\/api\/planets\/29\/",
    "vehicles" : [

    ],
    "species" : [
      "http:\/\/swapi.co\/api\/species\/7\/"
    ],
    "birth_year" : "53BBY",
    "skin_color" : "green",
    "name" : "Bossk",
    "eye_color" : "red",
    "hair_color" : "none",
    "gender" : "male",
    "edited" : "2014-12-20T21:17:50.355000Z",
    "height" : "190",
    "created" : "2014-12-15T12:53:49.297000Z",
    "mass" : "113",
    "films" : [
      "http:\/\/swapi.co\/api\/films\/2\/"
    ],
    "url" : "http:\/\/swapi.co\/api\/people\/24\/"
  },
  {
    "starships" : [
      "http:\/\/swapi.co\/api\/starships\/10\/"
    ],
    "homeworld" : "http:\/\/swapi.co\/api\/planets\/30\/",
    "vehicles" : [

    ],
    "species" : [
      "http:\/\/swapi.co\/api\/species\/1\/"
    ],
    "birth_year" : "31BBY",
    "skin_color" : "dark",
    "name" : "Lando Calrissian",
    "eye_color" : "brown",
    "hair_color" : "black",
    "gender" : "male",
    "edited" : "2014-12-20T21:17:50.357000Z",
    "height" : "177",
    "created" : "2014-12-15T12:56:32.683000Z",
    "mass" : "79",
    "films" : [
      "http:\/\/swapi.co\/api\/films\/3\/",
      "http:\/\/swapi.co\/api\/films\/2\/"
    ],
    "url" : "http:\/\/swapi.co\/api\/people\/25\/"
  },
  {
    "starships" : [

    ],
    "homeworld" : "http:\/\/swapi.co\/api\/planets\/6\/",
    "vehicles" : [

    ],
    "species" : [
      "http:\/\/swapi.co\/api\/species\/1\/"
    ],
    "birth_year" : "37BBY",
    "skin_color" : "light",
    "name" : "Lobot",
    "eye_color" : "blue",
    "hair_color" : "none",
    "gender" : "male",
    "edited" : "2014-12-20T21:17:50.359000Z",
    "height" : "175",
    "created" : "2014-12-15T13:01:57.178000Z",
    "mass" : "79",
    "films" : [
      "http:\/\/swapi.co\/api\/films\/2\/"
    ],
    "url" : "http:\/\/swapi.co\/api\/people\/26\/"
  },
  {
    "starships" : [

    ],
    "homeworld" : "http:\/\/swapi.co\/api\/planets\/31\/",
    "vehicles" : [

    ],
    "species" : [
      "http:\/\/swapi.co\/api\/species\/8\/"
    ],
    "birth_year" : "41BBY",
    "skin_color" : "brown mottle",
    "name" : "Ackbar",
    "eye_color" : "orange",
    "hair_color" : "none",
    "gender" : "male",
    "edited" : "2014-12-20T21:17:50.362000Z",
    "height" : "180",
    "created" : "2014-12-18T11:07:50.584000Z",
    "mass" : "83",
    "films" : [
      "http:\/\/swapi.co\/api\/films\/3\/"
    ],
    "url" : "http:\/\/swapi.co\/api\/people\/27\/"
  },
  {
    "starships" : [

    ],
    "homeworld" : "http:\/\/swapi.co\/api\/planets\/32\/",
    "vehicles" : [

    ],
    "species" : [
      "http:\/\/swapi.co\/api\/species\/1\/"
    ],
    "birth_year" : "48BBY",
    "skin_color" : "fair",
    "name" : "Mon Mothma",
    "eye_color" : "blue",
    "hair_color" : "auburn",
    "gender" : "female",
    "edited" : "2014-12-20T21:17:50.364000Z",
    "height" : "150",
    "created" : "2014-12-18T11:12:38.895000Z",
    "mass" : "unknown",
    "films" : [
      "http:\/\/swapi.co\/api\/films\/3\/"
    ],
    "url" : "http:\/\/swapi.co\/api\/people\/28\/"
  },
  {
    "starships" : [
      "http:\/\/swapi.co\/api\/starships\/28\/"
    ],
    "homeworld" : "http:\/\/swapi.co\/api\/planets\/28\/",
    "vehicles" : [

    ],
    "species" : [
      "http:\/\/swapi.co\/api\/species\/1\/"
    ],
    "birth_year" : "unknown",
    "skin_color" : "fair",
    "name" : "Arvel Crynyd",
    "eye_color" : "brown",
    "hair_color" : "brown",
    "gender" : "male",
    "edited" : "2014-12-20T21:17:50.367000Z",
    "height" : "unknown",
    "created" : "2014-12-18T11:16:33.020000Z",
    "mass" : "unknown",
    "films" : [
      "http:\/\/swapi.co\/api\/films\/3\/"
    ],
    "url" : "http:\/\/swapi.co\/api\/people\/29\/"
  },
  {
    "starships" : [

    ],
    "homeworld" : "http:\/\/swapi.co\/api\/planets\/7\/",
    "vehicles" : [

    ],
    "species" : [
      "http:\/\/swapi.co\/api\/species\/9\/"
    ],
    "birth_year" : "8BBY",
    "skin_color" : "brown",
    "name" : "Wicket Systri Warrick",
    "eye_color" : "brown",
    "hair_color" : "brown",
    "gender" : "male",
    "edited" : "2014-12-20T21:17:50.369000Z",
    "height" : "88",
    "created" : "2014-12-18T11:21:58.954000Z",
    "mass" : "20",
    "films" : [
      "http:\/\/swapi.co\/api\/films\/3\/"
    ],
    "url" : "http:\/\/swapi.co\/api\/people\/30\/"
  },
  {
    "starships" : [
      "http:\/\/swapi.co\/api\/starships\/10\/"
    ],
    "homeworld" : "http:\/\/swapi.co\/api\/planets\/33\/",
    "vehicles" : [

    ],
    "species" : [
      "http:\/\/swapi.co\/api\/species\/10\/"
    ],
    "birth_year" : "unknown",
    "skin_color" : "grey",
    "name" : "Nien Nunb",
    "eye_color" : "black",
    "hair_color" : "none",
    "gender" : "male",
    "edited" : "2014-12-20T21:17:50.371000Z",
    "height" : "160",
    "created" : "2014-12-18T11:26:18.541000Z",
    "mass" : "68",
    "films" : [
      "http:\/\/swapi.co\/api\/films\/3\/"
    ],
    "url" : "http:\/\/swapi.co\/api\/people\/31\/"
  },
  {
    "starships" : [

    ],
    "homeworld" : "http:\/\/swapi.co\/api\/planets\/28\/",
    "vehicles" : [
      "http:\/\/swapi.co\/api\/vehicles\/38\/"
    ],
    "species" : [
      "http:\/\/swapi.co\/api\/species\/1\/"
    ],
    "birth_year" : "92BBY",
    "skin_color" : "fair",
    "name" : "Qui-Gon Jinn",
    "eye_color" : "blue",
    "hair_color" : "brown",
    "gender" : "male",
    "edited" : "2014-12-20T21:17:50.375000Z",
    "height" : "193",
    "created" : "2014-12-19T16:54:53.618000Z",
    "mass" : "89",
    "films" : [
      "http:\/\/swapi.co\/api\/films\/4\/"
    ],
    "url" : "http:\/\/swapi.co\/api\/people\/32\/"
  },
  {
    "starships" : [

    ],
    "homeworld" : "http:\/\/swapi.co\/api\/planets\/18\/",
    "vehicles" : [

    ],
    "species" : [
      "http:\/\/swapi.co\/api\/species\/11\/"
    ],
    "birth_year" : "unknown",
    "skin_color" : "mottled green",
    "name" : "Nute Gunray",
    "eye_color" : "red",
    "hair_color" : "none",
    "gender" : "male",
    "edited" : "2014-12-20T21:17:50.377000Z",
    "height" : "191",
    "created" : "2014-12-19T17:05:57.357000Z",
    "mass" : "90",
    "films" : [
      "http:\/\/swapi.co\/api\/films\/5\/",
      "http:\/\/swapi.co\/api\/films\/4\/",
      "http:\/\/swapi.co\/api\/films\/6\/"
    ],
    "url" : "http:\/\/swapi.co\/api\/people\/33\/"
  },
  {
    "starships" : [

    ],
    "homeworld" : "http:\/\/swapi.co\/api\/planets\/9\/",
    "vehicles" : [

    ],
    "species" : [
      "http:\/\/swapi.co\/api\/species\/1\/"
    ],
    "birth_year" : "91BBY",
    "skin_color" : "fair",
    "name" : "Finis Valorum",
    "eye_color" : "blue",
    "hair_color" : "blond",
    "gender" : "male",
    "edited" : "2014-12-20T21:17:50.379000Z",
    "height" : "170",
    "created" : "2014-12-19T17:21:45.915000Z",
    "mass" : "unknown",
    "films" : [
      "http:\/\/swapi.co\/api\/films\/4\/"
    ],
    "url" : "http:\/\/swapi.co\/api\/people\/34\/"
  },
  {
    "starships" : [
      "http:\/\/swapi.co\/api\/starships\/39\/",
      "http:\/\/swapi.co\/api\/starships\/49\/",
      "http:\/\/swapi.co\/api\/starships\/64\/"
    ],
    "homeworld" : "http:\/\/swapi.co\/api\/planets\/8\/",
    "vehicles" : [

    ],
    "species" : [
      "http:\/\/swapi.co\/api\/species\/1\/"
    ],
    "birth_year" : "46BBY",
    "skin_color" : "light",
    "name" : "Padmé Amidala",
    "eye_color" : "brown",
    "hair_color" : "brown",
    "gender" : "female",
    "edited" : "2014-12-20T21:17:50.381000Z",
    "height" : "185",
    "created" : "2014-12-19T17:28:26.926000Z",
    "mass" : "45",
    "films" : [
      "http:\/\/swapi.co\/api\/films\/5\/",
      "http:\/\/swapi.co\/api\/films\/4\/",
      "http:\/\/swapi.co\/api\/films\/6\/"
    ],
    "url" : "http:\/\/swapi.co\/api\/people\/35\/"
  },
  {
    "starships" : [

    ],
    "homeworld" : "http:\/\/swapi.co\/api\/planets\/8\/",
    "vehicles" : [

    ],
    "species" : [
      "http:\/\/swapi.co\/api\/species\/12\/"
    ],
    "birth_year" : "52BBY",
    "skin_color" : "orange",
    "name" : "Jar Jar Binks",
    "eye_color" : "orange",
    "hair_color" : "none",
    "gender" : "male",
    "edited" : "2014-12-20T21:17:50.383000Z",
    "height" : "196",
    "created" : "2014-12-19T17:29:32.489000Z",
    "mass" : "66",
    "films" : [
      "http:\/\/swapi.co\/api\/films\/5\/",
      "http:\/\/swapi.co\/api\/films\/4\/"
    ],
    "url" : "http:\/\/swapi.co\/api\/people\/36\/"
  },
  {
    "starships" : [

    ],
    "homeworld" : "http:\/\/swapi.co\/api\/planets\/8\/",
    "vehicles" : [

    ],
    "species" : [
      "http:\/\/swapi.co\/api\/species\/12\/"
    ],
    "birth_year" : "unknown",
    "skin_color" : "grey",
    "name" : "Roos Tarpals",
    "eye_color" : "orange",
    "hair_color" : "none",
    "gender" : "male",
    "edited" : "2014-12-20T21:17:50.385000Z",
    "height" : "224",
    "created" : "2014-12-19T17:32:56.741000Z",
    "mass" : "82",
    "films" : [
      "http:\/\/swapi.co\/api\/films\/4\/"
    ],
    "url" : "http:\/\/swapi.co\/api\/people\/37\/"
  },
  {
    "starships" : [

    ],
    "homeworld" : "http:\/\/swapi.co\/api\/planets\/8\/",
    "vehicles" : [

    ],
    "species" : [
      "http:\/\/swapi.co\/api\/species\/12\/"
    ],
    "birth_year" : "unknown",
    "skin_color" : "green",
    "name" : "Rugor Nass",
    "eye_color" : "orange",
    "hair_color" : "none",
    "gender" : "male",
    "edited" : "2014-12-20T21:17:50.388000Z",
    "height" : "206",
    "created" : "2014-12-19T17:33:38.909000Z",
    "mass" : "unknown",
    "films" : [
      "http:\/\/swapi.co\/api\/films\/4\/"
    ],
    "url" : "http:\/\/swapi.co\/api\/people\/38\/"
  },
  {
    "starships" : [
      "http:\/\/swapi.co\/api\/starships\/40\/"
    ],
    "homeworld" : "http:\/\/swapi.co\/api\/planets\/8\/",
    "vehicles" : [

    ],
    "species" : [

    ],
    "birth_year" : "unknown",
    "skin_color" : "fair",
    "name" : "Ric Olié",
    "eye_color" : "blue",
    "hair_color" : "brown",
    "gender" : "male",
    "edited" : "2014-12-20T21:17:50.392000Z",
    "height" : "183",
    "created" : "2014-12-19T17:45:01.522000Z",
    "mass" : "unknown",
    "films" : [
      "http:\/\/swapi.co\/api\/films\/4\/"
    ],
    "url" : "http:\/\/swapi.co\/api\/people\/39\/"
  },
  {
    "starships" : [

    ],
    "homeworld" : "http:\/\/swapi.co\/api\/planets\/34\/",
    "vehicles" : [

    ],
    "species" : [
      "http:\/\/swapi.co\/api\/species\/13\/"
    ],
    "birth_year" : "unknown",
    "skin_color" : "blue, grey",
    "name" : "Watto",
    "eye_color" : "yellow",
    "hair_color" : "black",
    "gender" : "male",
    "edited" : "2014-12-20T21:17:50.395000Z",
    "height" : "137",
    "created" : "2014-12-19T17:48:54.647000Z",
    "mass" : "unknown",
    "films" : [
      "http:\/\/swapi.co\/api\/films\/5\/",
      "http:\/\/swapi.co\/api\/films\/4\/"
    ],
    "url" : "http:\/\/swapi.co\/api\/people\/40\/"
  },
  {
    "starships" : [

    ],
    "homeworld" : "http:\/\/swapi.co\/api\/planets\/35\/",
    "vehicles" : [

    ],
    "species" : [
      "http:\/\/swapi.co\/api\/species\/14\/"
    ],
    "birth_year" : "unknown",
    "skin_color" : "grey, red",
    "name" : "Sebulba",
    "eye_color" : "orange",
    "hair_color" : "none",
    "gender" : "male",
    "edited" : "2014-12-20T21:17:50.397000Z",
    "height" : "112",
    "created" : "2014-12-19T17:53:02.586000Z",
    "mass" : "40",
    "films" : [
      "http:\/\/swapi.co\/api\/films\/4\/"
    ],
    "url" : "http:\/\/swapi.co\/api\/people\/41\/"
  },
  {
    "starships" : [

    ],
    "homeworld" : "http:\/\/swapi.co\/api\/planets\/8\/",
    "vehicles" : [

    ],
    "species" : [

    ],
    "birth_year" : "62BBY",
    "skin_color" : "dark",
    "name" : "Quarsh Panaka",
    "eye_color" : "brown",
    "hair_color" : "black",
    "gender" : "male",
    "edited" : "2014-12-20T21:17:50.399000Z",
    "height" : "183",
    "created" : "2014-12-19T17:55:43.348000Z",
    "mass" : "unknown",
    "films" : [
      "http:\/\/swapi.co\/api\/films\/4\/"
    ],
    "url" : "http:\/\/swapi.co\/api\/people\/42\/"
  },
  {
    "starships" : [

    ],
    "homeworld" : "http:\/\/swapi.co\/api\/planets\/1\/",
    "vehicles" : [

    ],
    "species" : [
      "http:\/\/swapi.co\/api\/species\/1\/"
    ],
    "birth_year" : "72BBY",
    "skin_color" : "fair",
    "name" : "Shmi Skywalker",
    "eye_color" : "brown",
    "hair_color" : "black",
    "gender" : "female",
    "edited" : "2014-12-20T21:17:50.401000Z",
    "height" : "163",
    "created" : "2014-12-19T17:57:41.191000Z",
    "mass" : "unknown",
    "films" : [
      "http:\/\/swapi.co\/api\/films\/5\/",
      "http:\/\/swapi.co\/api\/films\/4\/"
    ],
    "url" : "http:\/\/swapi.co\/api\/people\/43\/"
  },
  {
    "starships" : [
      "http:\/\/swapi.co\/api\/starships\/41\/"
    ],
    "homeworld" : "http:\/\/swapi.co\/api\/planets\/36\/",
    "vehicles" : [
      "http:\/\/swapi.co\/api\/vehicles\/42\/"
    ],
    "species" : [
      "http:\/\/swapi.co\/api\/species\/22\/"
    ],
    "birth_year" : "54BBY",
    "skin_color" : "red",
    "name" : "Darth Maul",
    "eye_color" : "yellow",
    "hair_color" : "none",
    "gender" : "male",
    "edited" : "2014-12-20T21:17:50.403000Z",
    "height" : "175",
    "created" : "2014-12-19T18:00:41.929000Z",
    "mass" : "80",
    "films" : [
      "http:\/\/swapi.co\/api\/films\/4\/"
    ],
    "url" : "http:\/\/swapi.co\/api\/people\/44\/"
  },
  {
    "starships" : [

    ],
    "homeworld" : "http:\/\/swapi.co\/api\/planets\/37\/",
    "vehicles" : [

    ],
    "species" : [
      "http:\/\/swapi.co\/api\/species\/15\/"
    ],
    "birth_year" : "unknown",
    "skin_color" : "pale",
    "name" : "Bib Fortuna",
    "eye_color" : "pink",
    "hair_color" : "none",
    "gender" : "male",
    "edited" : "2014-12-20T21:17:50.407000Z",
    "height" : "180",
    "created" : "2014-12-20T09:47:02.512000Z",
    "mass" : "unknown",
    "films" : [
      "http:\/\/swapi.co\/api\/films\/3\/"
    ],
    "url" : "http:\/\/swapi.co\/api\/people\/45\/"
  },
  {
    "starships" : [

    ],
    "homeworld" : "http:\/\/swapi.co\/api\/planets\/37\/",
    "vehicles" : [

    ],
    "species" : [
      "http:\/\/swapi.co\/api\/species\/15\/"
    ],
    "birth_year" : "48BBY",
    "skin_color" : "blue",
    "name" : "Ayla Secura",
    "eye_color" : "hazel",
    "hair_color" : "none",
    "gender" : "female",
    "edited" : "2014-12-20T21:17:50.409000Z",
    "height" : "178",
    "created" : "2014-12-20T09:48:01.172000Z",
    "mass" : "55",
    "films" : [
      "http:\/\/swapi.co\/api\/films\/5\/",
      "http:\/\/swapi.co\/api\/films\/4\/",
      "http:\/\/swapi.co\/api\/films\/6\/"
    ],
    "url" : "http:\/\/swapi.co\/api\/people\/46\/"
  },
  {
    "starships" : [

    ],
    "homeworld" : "http:\/\/swapi.co\/api\/planets\/38\/",
    "vehicles" : [

    ],
    "species" : [
      "http:\/\/swapi.co\/api\/species\/16\/"
    ],
    "birth_year" : "unknown",
    "skin_color" : "grey, blue",
    "name" : "Ratts Tyerel",
    "eye_color" : "unknown",
    "hair_color" : "none",
    "gender" : "male",
    "edited" : "2014-12-20T21:17:50.410000Z",
    "height" : "79",
    "created" : "2014-12-20T09:53:15.086000Z",
    "mass" : "15",
    "films" : [
      "http:\/\/swapi.co\/api\/films\/4\/"
    ],
    "url" : "http:\/\/swapi.co\/api\/people\/47\/"
  },
  {
    "starships" : [

    ],
    "homeworld" : "http:\/\/swapi.co\/api\/planets\/39\/",
    "vehicles" : [

    ],
    "species" : [
      "http:\/\/swapi.co\/api\/species\/17\/"
    ],
    "birth_year" : "unknown",
    "skin_color" : "blue, grey",
    "name" : "Dud Bolt",
    "eye_color" : "yellow",
    "hair_color" : "none",
    "gender" : "male",
    "edited" : "2014-12-20T21:17:50.414000Z",
    "height" : "94",
    "created" : "2014-12-20T09:57:31.858000Z",
    "mass" : "45",
    "films" : [
      "http:\/\/swapi.co\/api\/films\/4\/"
    ],
    "url" : "http:\/\/swapi.co\/api\/people\/48\/"
  },
  {
    "starships" : [

    ],
    "homeworld" : "http:\/\/swapi.co\/api\/planets\/40\/",
    "vehicles" : [

    ],
    "species" : [
      "http:\/\/swapi.co\/api\/species\/18\/"
    ],
    "birth_year" : "unknown",
    "skin_color" : "white, blue",
    "name" : "Gasgano",
    "eye_color" : "black",
    "hair_color" : "none",
    "gender" : "male",
    "edited" : "2014-12-20T21:17:50.416000Z",
    "height" : "122",
    "created" : "2014-12-20T10:02:12.223000Z",
    "mass" : "unknown",
    "films" : [
      "http:\/\/swapi.co\/api\/films\/4\/"
    ],
    "url" : "http:\/\/swapi.co\/api\/people\/49\/"
  },
  {
    "starships" : [

    ],
    "homeworld" : "http:\/\/swapi.co\/api\/planets\/41\/",
    "vehicles" : [

    ],
    "species" : [
      "http:\/\/swapi.co\/api\/species\/19\/"
    ],
    "birth_year" : "unknown",
    "skin_color" : "grey, green, yellow",
    "name" : "Ben Quadinaros",
    "eye_color" : "orange",
    "hair_color" : "none",
    "gender" : "male",
    "edited" : "2014-12-20T21:17:50.417000Z",
    "height" : "163",
    "created" : "2014-12-20T10:08:33.777000Z",
    "mass" : "65",
    "films" : [
      "http:\/\/swapi.co\/api\/films\/4\/"
    ],
    "url" : "http:\/\/swapi.co\/api\/people\/50\/"
  },
  {
    "starships" : [

    ],
    "homeworld" : "http:\/\/swapi.co\/api\/planets\/42\/",
    "vehicles" : [

    ],
    "species" : [
      "http:\/\/swapi.co\/api\/species\/1\/"
    ],
    "birth_year" : "72BBY",
    "skin_color" : "dark",
    "name" : "Mace Windu",
    "eye_color" : "brown",
    "hair_color" : "none",
    "gender" : "male",
    "edited" : "2014-12-20T21:17:50.420000Z",
    "height" : "188",
    "created" : "2014-12-20T10:12:30.846000Z",
    "mass" : "84",
    "films" : [
      "http:\/\/swapi.co\/api\/films\/5\/",
      "http:\/\/swapi.co\/api\/films\/4\/",
      "http:\/\/swapi.co\/api\/films\/6\/"
    ],
    "url" : "http:\/\/swapi.co\/api\/people\/51\/"
  },
  {
    "starships" : [

    ],
    "homeworld" : "http:\/\/swapi.co\/api\/planets\/43\/",
    "vehicles" : [

    ],
    "species" : [
      "http:\/\/swapi.co\/api\/species\/20\/"
    ],
    "birth_year" : "92BBY",
    "skin_color" : "pale",
    "name" : "Ki-Adi-Mundi",
    "eye_color" : "yellow",
    "hair_color" : "white",
    "gender" : "male",
    "edited" : "2014-12-20T21:17:50.422000Z",
    "height" : "198",
    "created" : "2014-12-20T10:15:32.293000Z",
    "mass" : "82",
    "films" : [
      "http:\/\/swapi.co\/api\/films\/5\/",
      "http:\/\/swapi.co\/api\/films\/4\/",
      "http:\/\/swapi.co\/api\/films\/6\/"
    ],
    "url" : "http:\/\/swapi.co\/api\/people\/52\/"
  },
  {
    "starships" : [

    ],
    "homeworld" : "http:\/\/swapi.co\/api\/planets\/44\/",
    "vehicles" : [

    ],
    "species" : [
      "http:\/\/swapi.co\/api\/species\/21\/"
    ],
    "birth_year" : "unknown",
    "skin_color" : "green",
    "name" : "Kit Fisto",
    "eye_color" : "black",
    "hair_color" : "none",
    "gender" : "male",
    "edited" : "2014-12-20T21:17:50.424000Z",
    "height" : "196",
    "created" : "2014-12-20T10:18:57.202000Z",
    "mass" : "87",
    "films" : [
      "http:\/\/swapi.co\/api\/films\/5\/",
      "http:\/\/swapi.co\/api\/films\/4\/",
      "http:\/\/swapi.co\/api\/films\/6\/"
    ],
    "url" : "http:\/\/swapi.co\/api\/people\/53\/"
  },
  {
    "starships" : [

    ],
    "homeworld" : "http:\/\/swapi.co\/api\/planets\/45\/",
    "vehicles" : [

    ],
    "species" : [
      "http:\/\/swapi.co\/api\/species\/22\/"
    ],
    "birth_year" : "unknown",
    "skin_color" : "brown",
    "name" : "Eeth Koth",
    "eye_color" : "brown",
    "hair_color" : "black",
    "gender" : "male",
    "edited" : "2014-12-20T21:17:50.427000Z",
    "height" : "171",
    "created" : "2014-12-20T10:26:47.902000Z",
    "mass" : "unknown",
    "films" : [
      "http:\/\/swapi.co\/api\/films\/4\/",
      "http:\/\/swapi.co\/api\/films\/6\/"
    ],
    "url" : "http:\/\/swapi.co\/api\/people\/54\/"
  },
  {
    "starships" : [

    ],
    "homeworld" : "http:\/\/swapi.co\/api\/planets\/9\/",
    "vehicles" : [

    ],
    "species" : [
      "http:\/\/swapi.co\/api\/species\/23\/"
    ],
    "birth_year" : "unknown",
    "skin_color" : "dark",
    "name" : "Adi Gallia",
    "eye_color" : "blue",
    "hair_color" : "none",
    "gender" : "female",
    "edited" : "2014-12-20T21:17:50.432000Z",
    "height" : "184",
    "created" : "2014-12-20T10:29:11.661000Z",
    "mass" : "50",
    "films" : [
      "http:\/\/swapi.co\/api\/films\/4\/",
      "http:\/\/swapi.co\/api\/films\/6\/"
    ],
    "url" : "http:\/\/swapi.co\/api\/people\/55\/"
  },
  {
    "starships" : [

    ],
    "homeworld" : "http:\/\/swapi.co\/api\/planets\/47\/",
    "vehicles" : [

    ],
    "species" : [
      "http:\/\/swapi.co\/api\/species\/24\/"
    ],
    "birth_year" : "unknown",
    "skin_color" : "pale",
    "name" : "Saesee Tiin",
    "eye_color" : "orange",
    "hair_color" : "none",
    "gender" : "male",
    "edited" : "2014-12-20T21:17:50.434000Z",
    "height" : "188",
    "created" : "2014-12-20T10:32:11.669000Z",
    "mass" : "unknown",
    "films" : [
      "http:\/\/swapi.co\/api\/films\/4\/",
      "http:\/\/swapi.co\/api\/films\/6\/"
    ],
    "url" : "http:\/\/swapi.co\/api\/people\/56\/"
  },
  {
    "starships" : [

    ],
    "homeworld" : "http:\/\/swapi.co\/api\/planets\/48\/",
    "vehicles" : [

    ],
    "species" : [
      "http:\/\/swapi.co\/api\/species\/25\/"
    ],
    "birth_year" : "unknown",
    "skin_color" : "white",
    "name" : "Yarael Poof",
    "eye_color" : "yellow",
    "hair_color" : "none",
    "gender" : "male",
    "edited" : "2014-12-20T21:17:50.437000Z",
    "height" : "264",
    "created" : "2014-12-20T10:34:48.725000Z",
    "mass" : "unknown",
    "films" : [
      "http:\/\/swapi.co\/api\/films\/4\/"
    ],
    "url" : "http:\/\/swapi.co\/api\/people\/57\/"
  },
  {
    "starships" : [
      "http:\/\/swapi.co\/api\/starships\/48\/"
    ],
    "homeworld" : "http:\/\/swapi.co\/api\/planets\/49\/",
    "vehicles" : [

    ],
    "species" : [
      "http:\/\/swapi.co\/api\/species\/26\/"
    ],
    "birth_year" : "22BBY",
    "skin_color" : "orange",
    "name" : "Plo Koon",
    "eye_color" : "black",
    "hair_color" : "none",
    "gender" : "male",
    "edited" : "2014-12-20T21:17:50.439000Z",
    "height" : "188",
    "created" : "2014-12-20T10:49:19.859000Z",
    "mass" : "80",
    "films" : [
      "http:\/\/swapi.co\/api\/films\/5\/",
      "http:\/\/swapi.co\/api\/films\/4\/",
      "http:\/\/swapi.co\/api\/films\/6\/"
    ],
    "url" : "http:\/\/swapi.co\/api\/people\/58\/"
  },
  {
    "starships" : [

    ],
    "homeworld" : "http:\/\/swapi.co\/api\/planets\/50\/",
    "vehicles" : [

    ],
    "species" : [
      "http:\/\/swapi.co\/api\/species\/27\/"
    ],
    "birth_year" : "unknown",
    "skin_color" : "blue",
    "name" : "Mas Amedda",
    "eye_color" : "blue",
    "hair_color" : "none",
    "gender" : "male",
    "edited" : "2014-12-20T21:17:50.442000Z",
    "height" : "196",
    "created" : "2014-12-20T10:53:26.457000Z",
    "mass" : "unknown",
    "films" : [
      "http:\/\/swapi.co\/api\/films\/5\/",
      "http:\/\/swapi.co\/api\/films\/4\/"
    ],
    "url" : "http:\/\/swapi.co\/api\/people\/59\/"
  },
  {
    "starships" : [
      "http:\/\/swapi.co\/api\/starships\/39\/"
    ],
    "homeworld" : "http:\/\/swapi.co\/api\/planets\/8\/",
    "vehicles" : [

    ],
    "species" : [
      "http:\/\/swapi.co\/api\/species\/1\/"
    ],
    "birth_year" : "unknown",
    "skin_color" : "dark",
    "name" : "Gregar Typho",
    "eye_color" : "brown",
    "hair_color" : "black",
    "gender" : "male",
    "edited" : "2014-12-20T21:17:50.445000Z",
    "height" : "185",
    "created" : "2014-12-20T11:10:10.381000Z",
    "mass" : "85",
    "films" : [
      "http:\/\/swapi.co\/api\/films\/5\/"
    ],
    "url" : "http:\/\/swapi.co\/api\/people\/60\/"
  },
  {
    "starships" : [

    ],
    "homeworld" : "http:\/\/swapi.co\/api\/planets\/8\/",
    "vehicles" : [

    ],
    "species" : [
      "http:\/\/swapi.co\/api\/species\/1\/"
    ],
    "birth_year" : "unknown",
    "skin_color" : "light",
    "name" : "Cordé",
    "eye_color" : "brown",
    "hair_color" : "brown",
    "gender" : "female",
    "edited" : "2014-12-20T21:17:50.449000Z",
    "height" : "157",
    "created" : "2014-12-20T11:11:39.630000Z",
    "mass" : "unknown",
    "films" : [
      "http:\/\/swapi.co\/api\/films\/5\/"
    ],
    "url" : "http:\/\/swapi.co\/api\/people\/61\/"
  },
  {
    "starships" : [

    ],
    "homeworld" : "http:\/\/swapi.co\/api\/planets\/1\/",
    "vehicles" : [

    ],
    "species" : [
      "http:\/\/swapi.co\/api\/species\/1\/"
    ],
    "birth_year" : "82BBY",
    "skin_color" : "fair",
    "name" : "Cliegg Lars",
    "eye_color" : "blue",
    "hair_color" : "brown",
    "gender" : "male",
    "edited" : "2014-12-20T21:17:50.451000Z",
    "height" : "183",
    "created" : "2014-12-20T15:59:03.958000Z",
    "mass" : "unknown",
    "films" : [
      "http:\/\/swapi.co\/api\/films\/5\/"
    ],
    "url" : "http:\/\/swapi.co\/api\/people\/62\/"
  },
  {
    "starships" : [

    ],
    "homeworld" : "http:\/\/swapi.co\/api\/planets\/11\/",
    "vehicles" : [

    ],
    "species" : [
      "http:\/\/swapi.co\/api\/species\/28\/"
    ],
    "birth_year" : "unknown",
    "skin_color" : "green",
    "name" : "Poggle the Lesser",
    "eye_color" : "yellow",
    "hair_color" : "none",
    "gender" : "male",
    "edited" : "2014-12-20T21:17:50.453000Z",
    "height" : "183",
    "created" : "2014-12-20T16:40:43.977000Z",
    "mass" : "80",
    "films" : [
      "http:\/\/swapi.co\/api\/films\/5\/",
      "http:\/\/swapi.co\/api\/films\/6\/"
    ],
    "url" : "http:\/\/swapi.co\/api\/people\/63\/"
  },
  {
    "starships" : [

    ],
    "homeworld" : "http:\/\/swapi.co\/api\/planets\/51\/",
    "vehicles" : [

    ],
    "species" : [
      "http:\/\/swapi.co\/api\/species\/29\/"
    ],
    "birth_year" : "58BBY",
    "skin_color" : "yellow",
    "name" : "Luminara Unduli",
    "eye_color" : "blue",
    "hair_color" : "black",
    "gender" : "female",
    "edited" : "2014-12-20T21:17:50.455000Z",
    "height" : "170",
    "created" : "2014-12-20T16:45:53.668000Z",
    "mass" : "56.2",
    "films" : [
      "http:\/\/swapi.co\/api\/films\/5\/",
      "http:\/\/swapi.co\/api\/films\/6\/"
    ],
    "url" : "http:\/\/swapi.co\/api\/people\/64\/"
  },
  {
    "starships" : [

    ],
    "homeworld" : "http:\/\/swapi.co\/api\/planets\/51\/",
    "vehicles" : [

    ],
    "species" : [
      "http:\/\/swapi.co\/api\/species\/29\/"
    ],
    "birth_year" : "40BBY",
    "skin_color" : "yellow",
    "name" : "Barriss Offee",
    "eye_color" : "blue",
    "hair_color" : "black",
    "gender" : "female",
    "edited" : "2014-12-20T21:17:50.457000Z",
    "height" : "166",
    "created" : "2014-12-20T16:46:40.440000Z",
    "mass" : "50",
    "films" : [
      "http:\/\/swapi.co\/api\/films\/5\/"
    ],
    "url" : "http:\/\/swapi.co\/api\/people\/65\/"
  },
  {
    "starships" : [

    ],
    "homeworld" : "http:\/\/swapi.co\/api\/planets\/8\/",
    "vehicles" : [

    ],
    "species" : [
      "http:\/\/swapi.co\/api\/species\/1\/"
    ],
    "birth_year" : "unknown",
    "skin_color" : "light",
    "name" : "Dormé",
    "eye_color" : "brown",
    "hair_color" : "brown",
    "gender" : "female",
    "edited" : "2014-12-20T21:17:50.460000Z",
    "height" : "165",
    "created" : "2014-12-20T16:49:14.640000Z",
    "mass" : "unknown",
    "films" : [
      "http:\/\/swapi.co\/api\/films\/5\/"
    ],
    "url" : "http:\/\/swapi.co\/api\/people\/66\/"
  },
  {
    "starships" : [

    ],
    "homeworld" : "http:\/\/swapi.co\/api\/planets\/52\/",
    "vehicles" : [
      "http:\/\/swapi.co\/api\/vehicles\/55\/"
    ],
    "species" : [
      "http:\/\/swapi.co\/api\/species\/1\/"
    ],
    "birth_year" : "102BBY",
    "skin_color" : "fair",
    "name" : "Dooku",
    "eye_color" : "brown",
    "hair_color" : "white",
    "gender" : "male",
    "edited" : "2014-12-20T21:17:50.462000Z",
    "height" : "193",
    "created" : "2014-12-20T16:52:14.726000Z",
    "mass" : "80",
    "films" : [
      "http:\/\/swapi.co\/api\/films\/5\/",
      "http:\/\/swapi.co\/api\/films\/6\/"
    ],
    "url" : "http:\/\/swapi.co\/api\/people\/67\/"
  },
  {
    "starships" : [

    ],
    "homeworld" : "http:\/\/swapi.co\/api\/planets\/2\/",
    "vehicles" : [

    ],
    "species" : [
      "http:\/\/swapi.co\/api\/species\/1\/"
    ],
    "birth_year" : "67BBY",
    "skin_color" : "tan",
    "name" : "Bail Prestor Organa",
    "eye_color" : "brown",
    "hair_color" : "black",
    "gender" : "male",
    "edited" : "2014-12-20T21:17:50.463000Z",
    "height" : "191",
    "created" : "2014-12-20T16:53:08.575000Z",
    "mass" : "unknown",
    "films" : [
      "http:\/\/swapi.co\/api\/films\/5\/",
      "http:\/\/swapi.co\/api\/films\/6\/"
    ],
    "url" : "http:\/\/swapi.co\/api\/people\/68\/"
  },
  {
    "starships" : [

    ],
    "homeworld" : "http:\/\/swapi.co\/api\/planets\/53\/",
    "vehicles" : [

    ],
    "species" : [
      "http:\/\/swapi.co\/api\/species\/1\/"
    ],
    "birth_year" : "66BBY",
    "skin_color" : "tan",
    "name" : "Jango Fett",
    "eye_color" : "brown",
    "hair_color" : "black",
    "gender" : "male",
    "edited" : "2014-12-20T21:17:50.465000Z",
    "height" : "183",
    "created" : "2014-12-20T16:54:41.620000Z",
    "mass" : "79",
    "films" : [
      "http:\/\/swapi.co\/api\/films\/5\/"
    ],
    "url" : "http:\/\/swapi.co\/api\/people\/69\/"
  },
  {
    "starships" : [

    ],
    "homeworld" : "http:\/\/swapi.co\/api\/planets\/54\/",
    "vehicles" : [
      "http:\/\/swapi.co\/api\/vehicles\/45\/"
    ],
    "species" : [
      "http:\/\/swapi.co\/api\/species\/30\/"
    ],
    "birth_year" : "unknown",
    "skin_color" : "fair, green, yellow",
    "name" : "Zam Wesell",
    "eye_color" : "yellow",
    "hair_color" : "blonde",
    "gender" : "female",
    "edited" : "2014-12-20T21:17:50.468000Z",
    "height" : "168",
    "created" : "2014-12-20T16:57:44.471000Z",
    "mass" : "55",
    "films" : [
      "http:\/\/swapi.co\/api\/films\/5\/"
    ],
    "url" : "http:\/\/swapi.co\/api\/people\/70\/"
  },
  {
    "starships" : [

    ],
    "homeworld" : "http:\/\/swapi.co\/api\/planets\/55\/",
    "vehicles" : [

    ],
    "species" : [
      "http:\/\/swapi.co\/api\/species\/31\/"
    ],
    "birth_year" : "unknown",
    "skin_color" : "brown",
    "name" : "Dexter Jettster",
    "eye_color" : "yellow",
    "hair_color" : "none",
    "gender" : "male",
    "edited" : "2014-12-20T21:17:50.470000Z",
    "height" : "198",
    "created" : "2014-12-20T17:28:27.248000Z",
    "mass" : "102",
    "films" : [
      "http:\/\/swapi.co\/api\/films\/5\/"
    ],
    "url" : "http:\/\/swapi.co\/api\/people\/71\/"
  },
  {
    "starships" : [

    ],
    "homeworld" : "http:\/\/swapi.co\/api\/planets\/10\/",
    "vehicles" : [

    ],
    "species" : [
      "http:\/\/swapi.co\/api\/species\/32\/"
    ],
    "birth_year" : "unknown",
    "skin_color" : "grey",
    "name" : "Lama Su",
    "eye_color" : "black",
    "hair_color" : "none",
    "gender" : "male",
    "edited" : "2014-12-20T21:17:50.473000Z",
    "height" : "229",
    "created" : "2014-12-20T17:30:50.416000Z",
    "mass" : "88",
    "films" : [
      "http:\/\/swapi.co\/api\/films\/5\/"
    ],
    "url" : "http:\/\/swapi.co\/api\/people\/72\/"
  },
  {
    "starships" : [

    ],
    "homeworld" : "http:\/\/swapi.co\/api\/planets\/10\/",
    "vehicles" : [

    ],
    "species" : [
      "http:\/\/swapi.co\/api\/species\/32\/"
    ],
    "birth_year" : "unknown",
    "skin_color" : "grey",
    "name" : "Taun We",
    "eye_color" : "black",
    "hair_color" : "none",
    "gender" : "female",
    "edited" : "2014-12-20T21:17:50.474000Z",
    "height" : "213",
    "created" : "2014-12-20T17:31:21.195000Z",
    "mass" : "unknown",
    "films" : [
      "http:\/\/swapi.co\/api\/films\/5\/"
    ],
    "url" : "http:\/\/swapi.co\/api\/people\/73\/"
  },
  {
    "starships" : [

    ],
    "homeworld" : "http:\/\/swapi.co\/api\/planets\/9\/",
    "vehicles" : [

    ],
    "species" : [
      "http:\/\/swapi.co\/api\/species\/1\/"
    ],
    "birth_year" : "unknown",
    "skin_color" : "fair",
    "name" : "Jocasta Nu",
    "eye_color" : "blue",
    "hair_color" : "white",
    "gender" : "female",
    "edited" : "2014-12-20T21:17:50.476000Z",
    "height" : "167",
    "created" : "2014-12-20T17:32:51.996000Z",
    "mass" : "unknown",
    "films" : [
      "http:\/\/swapi.co\/api\/films\/5\/"
    ],
    "url" : "http:\/\/swapi.co\/api\/people\/74\/"
  },
  {
    "starships" : [

    ],
    "homeworld" : "http:\/\/swapi.co\/api\/planets\/28\/",
    "vehicles" : [

    ],
    "species" : [

    ],
    "birth_year" : "unknown",
    "skin_color" : "silver, red",
    "name" : "R4-P17",
    "eye_color" : "red, blue",
    "hair_color" : "none",
    "gender" : "female",
    "edited" : "2014-12-20T21:17:50.478000Z",
    "height" : "96",
    "created" : "2014-12-20T17:43:36.409000Z",
    "mass" : "unknown",
    "films" : [
      "http:\/\/swapi.co\/api\/films\/5\/",
      "http:\/\/swapi.co\/api\/films\/6\/"
    ],
    "url" : "http:\/\/swapi.co\/api\/people\/75\/"
  },
  {
    "starships" : [

    ],
    "homeworld" : "http:\/\/swapi.co\/api\/planets\/56\/",
    "vehicles" : [

    ],
    "species" : [
      "http:\/\/swapi.co\/api\/species\/33\/"
    ],
    "birth_year" : "unknown",
    "skin_color" : "green, grey",
    "name" : "Wat Tambor",
    "eye_color" : "unknown",
    "hair_color" : "none",
    "gender" : "male",
    "edited" : "2014-12-20T21:17:50.481000Z",
    "height" : "193",
    "created" : "2014-12-20T17:53:52.607000Z",
    "mass" : "48",
    "films" : [
      "http:\/\/swapi.co\/api\/films\/5\/"
    ],
    "url" : "http:\/\/swapi.co\/api\/people\/76\/"
  },
  {
    "starships" : [

    ],
    "homeworld" : "http:\/\/swapi.co\/api\/planets\/57\/",
    "vehicles" : [

    ],
    "species" : [
      "http:\/\/swapi.co\/api\/species\/34\/"
    ],
    "birth_year" : "unknown",
    "skin_color" : "grey",
    "name" : "San Hill",
    "eye_color" : "gold",
    "hair_color" : "none",
    "gender" : "male",
    "edited" : "2014-12-20T21:17:50.484000Z",
    "height" : "191",
    "created" : "2014-12-20T17:58:17.049000Z",
    "mass" : "unknown",
    "films" : [
      "http:\/\/swapi.co\/api\/films\/5\/"
    ],
    "url" : "http:\/\/swapi.co\/api\/people\/77\/"
  },
  {
    "starships" : [

    ],
    "homeworld" : "http:\/\/swapi.co\/api\/planets\/58\/",
    "vehicles" : [

    ],
    "species" : [
      "http:\/\/swapi.co\/api\/species\/35\/"
    ],
    "birth_year" : "unknown",
    "skin_color" : "red, blue, white",
    "name" : "Shaak Ti",
    "eye_color" : "black",
    "hair_color" : "none",
    "gender" : "female",
    "edited" : "2014-12-20T21:17:50.486000Z",
    "height" : "178",
    "created" : "2014-12-20T18:44:01.103000Z",
    "mass" : "57",
    "films" : [
      "http:\/\/swapi.co\/api\/films\/5\/",
      "http:\/\/swapi.co\/api\/films\/6\/"
    ],
    "url" : "http:\/\/swapi.co\/api\/people\/78\/"
  },
  {
    "starships" : [
      "http:\/\/swapi.co\/api\/starships\/74\/"
    ],
    "homeworld" : "http:\/\/swapi.co\/api\/planets\/59\/",
    "vehicles" : [
      "http:\/\/swapi.co\/api\/vehicles\/60\/"
    ],
    "species" : [
      "http:\/\/swapi.co\/api\/species\/36\/"
    ],
    "birth_year" : "unknown",
    "skin_color" : "brown, white",
    "name" : "Grievous",
    "eye_color" : "green, yellow",
    "hair_color" : "none",
    "gender" : "male",
    "edited" : "2014-12-20T21:17:50.488000Z",
    "height" : "216",
    "created" : "2014-12-20T19:43:53.348000Z",
    "mass" : "159",
    "films" : [
      "http:\/\/swapi.co\/api\/films\/6\/"
    ],
    "url" : "http:\/\/swapi.co\/api\/people\/79\/"
  },
  {
    "starships" : [

    ],
    "homeworld" : "http:\/\/swapi.co\/api\/planets\/14\/",
    "vehicles" : [

    ],
    "species" : [
      "http:\/\/swapi.co\/api\/species\/3\/"
    ],
    "birth_year" : "unknown",
    "skin_color" : "brown",
    "name" : "Tarfful",
    "eye_color" : "blue",
    "hair_color" : "brown",
    "gender" : "male",
    "edited" : "2014-12-20T21:17:50.491000Z",
    "height" : "234",
    "created" : "2014-12-20T19:46:34.209000Z",
    "mass" : "136",
    "films" : [
      "http:\/\/swapi.co\/api\/films\/6\/"
    ],
    "url" : "http:\/\/swapi.co\/api\/people\/80\/"
  },
  {
    "starships" : [

    ],
    "homeworld" : "http:\/\/swapi.co\/api\/planets\/2\/",
    "vehicles" : [

    ],
    "species" : [
      "http:\/\/swapi.co\/api\/species\/1\/"
    ],
    "birth_year" : "unknown",
    "skin_color" : "light",
    "name" : "Raymus Antilles",
    "eye_color" : "brown",
    "hair_color" : "brown",
    "gender" : "male",
    "edited" : "2014-12-20T21:17:50.493000Z",
    "height" : "188",
    "created" : "2014-12-20T19:49:35.583000Z",
    "mass" : "79",
    "films" : [
      "http:\/\/swapi.co\/api\/films\/1\/",
      "http:\/\/swapi.co\/api\/films\/6\/"
    ],
    "url" : "http:\/\/swapi.co\/api\/people\/81\/"
  },
  {
    "starships" : [

    ],
    "homeworld" : "http:\/\/swapi.co\/api\/planets\/60\/",
    "vehicles" : [

    ],
    "species" : [

    ],
    "birth_year" : "unknown",
    "skin_color" : "pale",
    "name" : "Sly Moore",
    "eye_color" : "white",
    "hair_color" : "none",
    "gender" : "female",
    "edited" : "2014-12-20T21:17:50.496000Z",
    "height" : "178",
    "created" : "2014-12-20T20:18:37.619000Z",
    "mass" : "48",
    "films" : [
      "http:\/\/swapi.co\/api\/films\/5\/",
      "http:\/\/swapi.co\/api\/films\/6\/"
    ],
    "url" : "http:\/\/swapi.co\/api\/people\/82\/"
  },
  {
    "starships" : [

    ],
    "homeworld" : "http:\/\/swapi.co\/api\/planets\/12\/",
    "vehicles" : [

    ],
    "species" : [
      "http:\/\/swapi.co\/api\/species\/37\/"
    ],
    "birth_year" : "unknown",
    "skin_color" : "grey",
    "name" : "Tion Medon",
    "eye_color" : "black",
    "hair_color" : "none",
    "gender" : "male",
    "edited" : "2014-12-20T21:17:50.498000Z",
    "height" : "206",
    "created" : "2014-12-20T20:35:04.260000Z",
    "mass" : "80",
    "films" : [
      "http:\/\/swapi.co\/api\/films\/6\/"
    ],
    "url" : "http:\/\/swapi.co\/api\/people\/83\/"
  },
  {
    "starships" : [

    ],
    "homeworld" : "http:\/\/swapi.co\/api\/planets\/28\/",
    "vehicles" : [

    ],
    "species" : [
      "http:\/\/swapi.co\/api\/species\/1\/"
    ],
    "birth_year" : "unknown",
    "skin_color" : "dark",
    "name" : "Finn",
    "eye_color" : "dark",
    "hair_color" : "black",
    "gender" : "male",
    "edited" : "2015-04-17T06:52:40.793674Z",
    "height" : "unknown",
    "created" : "2015-04-17T06:52:40.793621Z",
    "mass" : "unknown",
    "films" : [
      "http:\/\/swapi.co\/api\/films\/7\/"
    ],
    "url" : "http:\/\/swapi.co\/api\/people\/84\/"
  },
  {
    "starships" : [

    ],
    "homeworld" : "http:\/\/swapi.co\/api\/planets\/28\/",
    "vehicles" : [

    ],
    "species" : [
      "http:\/\/swapi.co\/api\/species\/1\/"
    ],
    "birth_year" : "unknown",
    "skin_color" : "light",
    "name" : "Rey",
    "eye_color" : "hazel",
    "hair_color" : "brown",
    "gender" : "female",
    "edited" : "2015-04-17T06:54:01.495128Z",
    "height" : "unknown",
    "created" : "2015-04-17T06:54:01.495077Z",
    "mass" : "unknown",
    "films" : [
      "http:\/\/swapi.co\/api\/films\/7\/"
    ],
    "url" : "http:\/\/swapi.co\/api\/people\/85\/"
  },
  {
    "starships" : [
      "http:\/\/swapi.co\/api\/starships\/77\/"
    ],
    "homeworld" : "http:\/\/swapi.co\/api\/planets\/28\/",
    "vehicles" : [

    ],
    "species" : [
      "http:\/\/swapi.co\/api\/species\/1\/"
    ],
    "birth_year" : "unknown",
    "skin_color" : "light",
    "name" : "Poe Dameron",
    "eye_color" : "brown",
    "hair_color" : "brown",
    "gender" : "male",
    "edited" : "2015-04-17T06:55:21.622835Z",
    "height" : "unknown",
    "created" : "2015-04-17T06:55:21.622786Z",
    "mass" : "unknown",
    "films" : [
      "http:\/\/swapi.co\/api\/films\/7\/"
    ],
    "url" : "http:\/\/swapi.co\/api\/people\/86\/"
  },
  {
    "starships" : [

    ],
    "homeworld" : "http:\/\/swapi.co\/api\/planets\/28\/",
    "vehicles" : [

    ],
    "species" : [
      "http:\/\/swapi.co\/api\/species\/2\/"
    ],
    "birth_year" : "unknown",
    "skin_color" : "none",
    "name" : "BB8",
    "eye_color" : "black",
    "hair_color" : "none",
    "gender" : "none",
    "edited" : "2015-04-17T06:57:38.061453Z",
    "height" : "unknown",
    "created" : "2015-04-17T06:57:38.061346Z",
    "mass" : "unknown",
    "films" : [
      "http:\/\/swapi.co\/api\/films\/7\/"
    ],
    "url" : "http:\/\/swapi.co\/api\/people\/87\/"
  }
]