[
  {
    "url" : "http:\/\/swapi.co\/api\/species\/4\/",
    "hair_colors" : "n\/a",
    "classification" : "sentient",
    "homeworld" : "http:\/\/swapi.co\/api\/planets\/23\/",
    "designation" : "reptilian",
    "skin_colors" : "green, blue",
    "name" : "Rodian",
    "eye_colors" : "black",
    "average_height" : "170",
    "edited" : "2014-12-20T21:36:42.144000Z",
    "created" : "2014-12-10T17:05:26.471000Z",
    "people" : [
      "http:\/\/swapi.co\/api\/people\/15\/"
    ],
    "language" : "Galatic Basic",
    "average_lifespan" : "unknown",
    "films" : [
      "http:\/\/swapi.co\/api\/films\/1\/"
    ]
  },
  {
    "url" : "http:\/\/swapi.co\/api\/species\/5\/",
    "hair_colors" : "n\/a",
    "classification" : "gastropod",
    "homeworld" : "http:\/\/swapi.co\/api\/planets\/24\/",
    "designation" : "sentient",
    "skin_colors" : "green, brown, tan",
    "name" : "Hutt",
    "eye_colors" : "yellow, red",
    "average_height" : "300",
    "edited" : "2014-12-20T21:36:42.146000Z",
    "created" : "2014-12-10T17:12:50.410000Z",
    "people" : [
      "http:\/\/swapi.co\/api\/people\/16\/"
    ],
    "language" : "Huttese",
    "average_lifespan" : "1000",
    "films" : [
      "http:\/\/swapi.co\/api\/films\/3\/",
      "http:\/\/swapi.co\/api\/films\/1\/"
    ]
  },
  {
    "url" : "http:\/\/swapi.co\/api\/species\/6\/",
    "hair_colors" : "brown, white",
    "classification" : "mammal",
    "homeworld" : "http:\/\/swapi.co\/api\/planets\/28\/",
    "designation" : "sentient",
    "skin_colors" : "green, yellow",
    "name" : "Yoda's species",
    "eye_colors" : "brown, green, yellow",
    "average_height" : "66",
    "edited" : "2014-12-20T21:36:42.148000Z",
    "created" : "2014-12-15T12:27:22.877000Z",
    "people" : [
      "http:\/\/swapi.co\/api\/people\/20\/"
    ],
    "language" : "Galactic basic",
    "average_lifespan" : "900",
    "films" : [
      "http:\/\/swapi.co\/api\/films\/5\/",
      "http:\/\/swapi.co\/api\/films\/4\/",
      "http:\/\/swapi.co\/api\/films\/6\/",
      "http:\/\/swapi.co\/api\/films\/3\/",
      "http:\/\/swapi.co\/api\/films\/2\/"
    ]
  },
  {
    "url" : "http:\/\/swapi.co\/api\/species\/7\/",
    "hair_colors" : "none",
    "classification" : "reptile",
    "homeworld" : "http:\/\/swapi.co\/api\/planets\/29\/",
    "designation" : "sentient",
    "skin_colors" : "brown, green",
    "name" : "Trandoshan",
    "eye_colors" : "yellow, orange",
    "average_height" : "200",
    "edited" : "2014-12-20T21:36:42.151000Z",
    "created" : "2014-12-15T13:07:47.704000Z",
    "people" : [
      "http:\/\/swapi.co\/api\/people\/24\/"
    ],
    "language" : "Dosh",
    "average_lifespan" : "unknown",
    "films" : [
      "http:\/\/swapi.co\/api\/films\/2\/"
    ]
  },
  {
    "url" : "http:\/\/swapi.co\/api\/species\/8\/",
    "hair_colors" : "none",
    "classification" : "amphibian",
    "homeworld" : "http:\/\/swapi.co\/api\/planets\/31\/",
    "designation" : "sentient",
    "skin_colors" : "red, blue, brown, magenta",
    "name" : "Mon Calamari",
    "eye_colors" : "yellow",
    "average_height" : "160",
    "edited" : "2014-12-20T21:36:42.153000Z",
    "created" : "2014-12-18T11:09:52.263000Z",
    "people" : [
      "http:\/\/swapi.co\/api\/people\/27\/"
    ],
    "language" : "Mon Calamarian",
    "average_lifespan" : "unknown",
    "films" : [
      "http:\/\/swapi.co\/api\/films\/3\/"
    ]
  },
  {
    "url" : "http:\/\/swapi.co\/api\/species\/9\/",
    "hair_colors" : "white, brown, black",
    "classification" : "mammal",
    "homeworld" : "http:\/\/swapi.co\/api\/planets\/7\/",
    "designation" : "sentient",
    "skin_colors" : "brown",
    "name" : "Ewok",
    "eye_colors" : "orange, brown",
    "average_height" : "100",
    "edited" : "2014-12-20T21:36:42.155000Z",
    "created" : "2014-12-18T11:22:00.285000Z",
    "people" : [
      "http:\/\/swapi.co\/api\/people\/30\/"
    ],
    "language" : "Ewokese",
    "average_lifespan" : "unknown",
    "films" : [
      "http:\/\/swapi.co\/api\/films\/3\/"
    ]
  },
  {
    "url" : "http:\/\/swapi.co\/api\/species\/10\/",
    "hair_colors" : "none",
    "classification" : "mammal",
    "homeworld" : "http:\/\/swapi.co\/api\/planets\/33\/",
    "designation" : "sentient",
    "skin_colors" : "pale",
    "name" : "Sullustan",
    "eye_colors" : "black",
    "average_height" : "180",
    "edited" : "2014-12-20T21:36:42.157000Z",
    "created" : "2014-12-18T11:26:20.103000Z",
    "people" : [
      "http:\/\/swapi.co\/api\/people\/31\/"
    ],
    "language" : "Sullutese",
    "average_lifespan" : "unknown",
    "films" : [
      "http:\/\/swapi.co\/api\/films\/3\/"
    ]
  },
  {
    "url" : "http:\/\/swapi.co\/api\/species\/11\/",
    "hair_colors" : "none",
    "classification" : "unknown",
    "homeworld" : "http:\/\/swapi.co\/api\/planets\/18\/",
    "designation" : "sentient",
    "skin_colors" : "grey, green",
    "name" : "Neimodian",
    "eye_colors" : "red, pink",
    "average_height" : "180",
    "edited" : "2014-12-20T21:36:42.160000Z",
    "created" : "2014-12-19T17:07:31.319000Z",
    "people" : [
      "http:\/\/swapi.co\/api\/people\/33\/"
    ],
    "language" : "Neimoidia",
    "average_lifespan" : "unknown",
    "films" : [
      "http:\/\/swapi.co\/api\/films\/4\/"
    ]
  },
  {
    "url" : "http:\/\/swapi.co\/api\/species\/12\/",
    "hair_colors" : "none",
    "classification" : "amphibian",
    "homeworld" : "http:\/\/swapi.co\/api\/planets\/8\/",
    "designation" : "sentient",
    "skin_colors" : "brown, green",
    "name" : "Gungan",
    "eye_colors" : "orange",
    "average_height" : "190",
    "edited" : "2014-12-20T21:36:42.163000Z",
    "created" : "2014-12-19T17:30:37.341000Z",
    "people" : [
      "http:\/\/swapi.co\/api\/people\/36\/",
      "http:\/\/swapi.co\/api\/people\/37\/",
      "http:\/\/swapi.co\/api\/people\/38\/"
    ],
    "language" : "Gungan basic",
    "average_lifespan" : "unknown",
    "films" : [
      "http:\/\/swapi.co\/api\/films\/5\/",
      "http:\/\/swapi.co\/api\/films\/4\/"
    ]
  },
  {
    "url" : "http:\/\/swapi.co\/api\/species\/13\/",
    "hair_colors" : "none",
    "classification" : "mammal",
    "homeworld" : "http:\/\/swapi.co\/api\/planets\/34\/",
    "designation" : "sentient",
    "skin_colors" : "blue, green, grey",
    "name" : "Toydarian",
    "eye_colors" : "yellow",
    "average_height" : "120",
    "edited" : "2014-12-20T21:36:42.165000Z",
    "created" : "2014-12-19T17:48:56.893000Z",
    "people" : [
      "http:\/\/swapi.co\/api\/people\/40\/"
    ],
    "language" : "Toydarian",
    "average_lifespan" : "91",
    "films" : [
      "http:\/\/swapi.co\/api\/films\/5\/",
      "http:\/\/swapi.co\/api\/films\/4\/"
    ]
  },
  {
    "url" : "http:\/\/swapi.co\/api\/species\/14\/",
    "hair_colors" : "none",
    "classification" : "mammal",
    "homeworld" : "http:\/\/swapi.co\/api\/planets\/35\/",
    "designation" : "sentient",
    "skin_colors" : "brown, purple, grey, red",
    "name" : "Dug",
    "eye_colors" : "yellow, blue",
    "average_height" : "100",
    "edited" : "2014-12-20T21:36:42.167000Z",
    "created" : "2014-12-19T17:53:11.214000Z",
    "people" : [
      "http:\/\/swapi.co\/api\/people\/41\/"
    ],
    "language" : "Dugese",
    "average_lifespan" : "unknown",
    "films" : [
      "http:\/\/swapi.co\/api\/films\/4\/"
    ]
  },
  {
    "url" : "http:\/\/swapi.co\/api\/species\/15\/",
    "hair_colors" : "none",
    "classification" : "mammals",
    "homeworld" : "http:\/\/swapi.co\/api\/planets\/37\/",
    "designation" : "sentient",
    "skin_colors" : "orange, yellow, blue, green, pink, purple, tan",
    "name" : "Twi'lek",
    "eye_colors" : "blue, brown, orange, pink",
    "average_height" : "200",
    "edited" : "2014-12-20T21:36:42.169000Z",
    "created" : "2014-12-20T09:48:02.406000Z",
    "people" : [
      "http:\/\/swapi.co\/api\/people\/45\/",
      "http:\/\/swapi.co\/api\/people\/46\/"
    ],
    "language" : "Twi'leki",
    "average_lifespan" : "unknown",
    "films" : [
      "http:\/\/swapi.co\/api\/films\/5\/",
      "http:\/\/swapi.co\/api\/films\/4\/",
      "http:\/\/swapi.co\/api\/films\/6\/",
      "http:\/\/swapi.co\/api\/films\/3\/"
    ]
  },
  {
    "url" : "http:\/\/swapi.co\/api\/species\/16\/",
    "hair_colors" : "none",
    "classification" : "reptile",
    "homeworld" : "http:\/\/swapi.co\/api\/planets\/38\/",
    "designation" : "sentient",
    "skin_colors" : "blue, gray",
    "name" : "Aleena",
    "eye_colors" : "unknown",
    "average_height" : "80",
    "edited" : "2014-12-20T21:36:42.171000Z",
    "created" : "2014-12-20T09:53:16.481000Z",
    "people" : [
      "http:\/\/swapi.co\/api\/people\/47\/"
    ],
    "language" : "Aleena",
    "average_lifespan" : "79",
    "films" : [
      "http:\/\/swapi.co\/api\/films\/4\/"
    ]
  },
  {
    "url" : "http:\/\/swapi.co\/api\/species\/17\/",
    "hair_colors" : "none",
    "classification" : "unknown",
    "homeworld" : "http:\/\/swapi.co\/api\/planets\/39\/",
    "designation" : "sentient",
    "skin_colors" : "grey",
    "name" : "Vulptereen",
    "eye_colors" : "yellow",
    "average_height" : "100",
    "edited" : "2014-12-20T21:36:42.173000Z",
    "created" : "2014-12-20T09:57:33.128000Z",
    "people" : [
      "http:\/\/swapi.co\/api\/people\/48\/"
    ],
    "language" : "vulpterish",
    "average_lifespan" : "unknown",
    "films" : [
      "http:\/\/swapi.co\/api\/films\/4\/"
    ]
  },
  {
    "url" : "http:\/\/swapi.co\/api\/species\/18\/",
    "hair_colors" : "none",
    "classification" : "unknown",
    "homeworld" : "http:\/\/swapi.co\/api\/planets\/40\/",
    "designation" : "sentient",
    "skin_colors" : "grey, yellow, purple",
    "name" : "Xexto",
    "eye_colors" : "black",
    "average_height" : "125",
    "edited" : "2014-12-20T21:36:42.175000Z",
    "created" : "2014-12-20T10:02:13.915000Z",
    "people" : [
      "http:\/\/swapi.co\/api\/people\/49\/"
    ],
    "language" : "Xextese",
    "average_lifespan" : "unknown",
    "films" : [
      "http:\/\/swapi.co\/api\/films\/4\/"
    ]
  },
  {
    "url" : "http:\/\/swapi.co\/api\/species\/19\/",
    "hair_colors" : "none",
    "classification" : "unknown",
    "homeworld" : "http:\/\/swapi.co\/api\/planets\/41\/",
    "designation" : "sentient",
    "skin_colors" : "grey, green, yellow",
    "name" : "Toong",
    "eye_colors" : "orange",
    "average_height" : "200",
    "edited" : "2014-12-20T21:36:42.177000Z",
    "created" : "2014-12-20T10:08:36.795000Z",
    "people" : [
      "http:\/\/swapi.co\/api\/people\/50\/"
    ],
    "language" : "Tundan",
    "average_lifespan" : "unknown",
    "films" : [
      "http:\/\/swapi.co\/api\/films\/4\/",
      "http:\/\/swapi.co\/api\/films\/6\/"
    ]
  },
  {
    "url" : "http:\/\/swapi.co\/api\/species\/20\/",
    "hair_colors" : "red, blond, black, white",
    "classification" : "mammal",
    "homeworld" : "http:\/\/swapi.co\/api\/planets\/43\/",
    "designation" : "sentient",
    "skin_colors" : "pale pink",
    "name" : "Cerean",
    "eye_colors" : "hazel",
    "average_height" : "200",
    "edited" : "2014-12-20T21:36:42.179000Z",
    "created" : "2014-12-20T10:15:33.765000Z",
    "people" : [
      "http:\/\/swapi.co\/api\/people\/52\/"
    ],
    "language" : "Cerean",
    "average_lifespan" : "unknown",
    "films" : [
      "http:\/\/swapi.co\/api\/films\/4\/",
      "http:\/\/swapi.co\/api\/films\/6\/"
    ]
  },
  {
    "url" : "http:\/\/swapi.co\/api\/species\/21\/",
    "hair_colors" : "none",
    "classification" : "amphibian",
    "homeworld" : "http:\/\/swapi.co\/api\/planets\/44\/",
    "designation" : "sentient",
    "skin_colors" : "green, blue, brown, red",
    "name" : "Nautolan",
    "eye_colors" : "black",
    "average_height" : "180",
    "edited" : "2014-12-20T21:36:42.181000Z",
    "created" : "2014-12-20T10:18:58.610000Z",
    "people" : [
      "http:\/\/swapi.co\/api\/people\/53\/"
    ],
    "language" : "Nautila",
    "average_lifespan" : "70",
    "films" : [
      "http:\/\/swapi.co\/api\/films\/4\/"
    ]
  },
  {
    "url" : "http:\/\/swapi.co\/api\/species\/22\/",
    "hair_colors" : "black",
    "classification" : "mammal",
    "homeworld" : "http:\/\/swapi.co\/api\/planets\/45\/",
    "designation" : "sentient",
    "skin_colors" : "pale, brown, red, orange, yellow",
    "name" : "Zabrak",
    "eye_colors" : "brown, orange",
    "average_height" : "180",
    "edited" : "2014-12-20T21:36:42.183000Z",
    "created" : "2014-12-20T10:26:59.894000Z",
    "people" : [
      "http:\/\/swapi.co\/api\/people\/44\/",
      "http:\/\/swapi.co\/api\/people\/54\/"
    ],
    "language" : "Zabraki",
    "average_lifespan" : "unknown",
    "films" : [
      "http:\/\/swapi.co\/api\/films\/4\/"
    ]
  },
  {
    "url" : "http:\/\/swapi.co\/api\/species\/23\/",
    "hair_colors" : "unknown",
    "classification" : "mammal",
    "homeworld" : "http:\/\/swapi.co\/api\/planets\/46\/",
    "designation" : "sentient",
    "skin_colors" : "dark",
    "name" : "Tholothian",
    "eye_colors" : "blue, indigo",
    "average_height" : "unknown",
    "edited" : "2014-12-20T21:36:42.186000Z",
    "created" : "2014-12-20T10:29:13.798000Z",
    "people" : [
      "http:\/\/swapi.co\/api\/people\/55\/"
    ],
    "language" : "unknown",
    "average_lifespan" : "unknown",
    "films" : [
      "http:\/\/swapi.co\/api\/films\/4\/",
      "http:\/\/swapi.co\/api\/films\/6\/"
    ]
  },
  {
    "url" : "http:\/\/swapi.co\/api\/species\/24\/",
    "hair_colors" : "none",
    "classification" : "unknown",
    "homeworld" : "http:\/\/swapi.co\/api\/planets\/47\/",
    "designation" : "sentient",
    "skin_colors" : "pink",
    "name" : "Iktotchi",
    "eye_colors" : "orange",
    "average_height" : "180",
    "edited" : "2014-12-20T21:36:42.188000Z",
    "created" : "2014-12-20T10:32:13.046000Z",
    "people" : [
      "http:\/\/swapi.co\/api\/people\/56\/"
    ],
    "language" : "Iktotchese",
    "average_lifespan" : "unknown",
    "films" : [
      "http:\/\/swapi.co\/api\/films\/4\/",
      "http:\/\/swapi.co\/api\/films\/6\/"
    ]
  },
  {
    "url" : "http:\/\/swapi.co\/api\/species\/25\/",
    "hair_colors" : "none",
    "classification" : "mammal",
    "homeworld" : "http:\/\/swapi.co\/api\/planets\/48\/",
    "designation" : "sentient",
    "skin_colors" : "white",
    "name" : "Quermian",
    "eye_colors" : "yellow",
    "average_height" : "240",
    "edited" : "2014-12-20T21:36:42.189000Z",
    "created" : "2014-12-20T10:34:50.827000Z",
    "people" : [
      "http:\/\/swapi.co\/api\/people\/57\/"
    ],
    "language" : "Quermian",
    "average_lifespan" : "86",
    "films" : [
      "http:\/\/swapi.co\/api\/films\/4\/",
      "http:\/\/swapi.co\/api\/films\/6\/"
    ]
  },
  {
    "url" : "http:\/\/swapi.co\/api\/species\/26\/",
    "hair_colors" : "none",
    "classification" : "unknown",
    "homeworld" : "http:\/\/swapi.co\/api\/planets\/49\/",
    "designation" : "sentient",
    "skin_colors" : "peach, orange, red",
    "name" : "Kel Dor",
    "eye_colors" : "black, silver",
    "average_height" : "180",
    "edited" : "2014-12-20T21:36:42.191000Z",
    "created" : "2014-12-20T10:49:21.692000Z",
    "people" : [
      "http:\/\/swapi.co\/api\/people\/58\/"
    ],
    "language" : "Kel Dor",
    "average_lifespan" : "70",
    "films" : [
      "http:\/\/swapi.co\/api\/films\/4\/",
      "http:\/\/swapi.co\/api\/films\/6\/"
    ]
  },
  {
    "url" : "http:\/\/swapi.co\/api\/species\/27\/",
    "hair_colors" : "none",
    "classification" : "amphibian",
    "homeworld" : "http:\/\/swapi.co\/api\/planets\/50\/",
    "designation" : "sentient",
    "skin_colors" : "blue",
    "name" : "Chagrian",
    "eye_colors" : "blue",
    "average_height" : "190",
    "edited" : "2014-12-20T21:36:42.193000Z",
    "created" : "2014-12-20T10:53:28.795000Z",
    "people" : [
      "http:\/\/swapi.co\/api\/people\/59\/"
    ],
    "language" : "Chagria",
    "average_lifespan" : "unknown",
    "films" : [
      "http:\/\/swapi.co\/api\/films\/4\/",
      "http:\/\/swapi.co\/api\/films\/6\/"
    ]
  },
  {
    "url" : "http:\/\/swapi.co\/api\/species\/28\/",
    "hair_colors" : "none",
    "classification" : "insectoid",
    "homeworld" : "http:\/\/swapi.co\/api\/planets\/11\/",
    "designation" : "sentient",
    "skin_colors" : "green, brown",
    "name" : "Geonosian",
    "eye_colors" : "green, hazel",
    "average_height" : "178",
    "edited" : "2014-12-20T21:36:42.195000Z",
    "created" : "2014-12-20T16:40:45.618000Z",
    "people" : [
      "http:\/\/swapi.co\/api\/people\/63\/"
    ],
    "language" : "Geonosian",
    "average_lifespan" : "unknown",
    "films" : [
      "http:\/\/swapi.co\/api\/films\/5\/",
      "http:\/\/swapi.co\/api\/films\/6\/"
    ]
  },
  {
    "url" : "http:\/\/swapi.co\/api\/species\/29\/",
    "hair_colors" : "black, brown",
    "classification" : "mammal",
    "homeworld" : "http:\/\/swapi.co\/api\/planets\/51\/",
    "designation" : "sentient",
    "skin_colors" : "yellow, green",
    "name" : "Mirialan",
    "eye_colors" : "blue, green, red, yellow, brown, orange",
    "average_height" : "180",
    "edited" : "2014-12-20T21:36:42.197000Z",
    "created" : "2014-12-20T16:46:48.290000Z",
    "people" : [
      "http:\/\/swapi.co\/api\/people\/64\/",
      "http:\/\/swapi.co\/api\/people\/65\/"
    ],
    "language" : "Mirialan",
    "average_lifespan" : "unknown",
    "films" : [
      "http:\/\/swapi.co\/api\/films\/5\/",
      "http:\/\/swapi.co\/api\/films\/6\/"
    ]
  },
  {
    "url" : "http:\/\/swapi.co\/api\/species\/30\/",
    "hair_colors" : "none",
    "classification" : "reptilian",
    "homeworld" : "http:\/\/swapi.co\/api\/planets\/54\/",
    "designation" : "sentient",
    "skin_colors" : "green, yellow",
    "name" : "Clawdite",
    "eye_colors" : "yellow",
    "average_height" : "180",
    "edited" : "2014-12-20T21:36:42.199000Z",
    "created" : "2014-12-20T16:57:46.171000Z",
    "people" : [
      "http:\/\/swapi.co\/api\/people\/70\/"
    ],
    "language" : "Clawdite",
    "average_lifespan" : "70",
    "films" : [
      "http:\/\/swapi.co\/api\/films\/5\/",
      "http:\/\/swapi.co\/api\/films\/6\/"
    ]
  },
  {
    "url" : "http:\/\/swapi.co\/api\/species\/31\/",
    "hair_colors" : "none",
    "classification" : "amphibian",
    "homeworld" : "http:\/\/swapi.co\/api\/planets\/55\/",
    "designation" : "sentient",
    "skin_colors" : "brown",
    "name" : "Besalisk",
    "eye_colors" : "yellow",
    "average_height" : "178",
    "edited" : "2014-12-20T21:36:42.200000Z",
    "created" : "2014-12-20T17:28:28.821000Z",
    "people" : [
      "http:\/\/swapi.co\/api\/people\/71\/"
    ],
    "language" : "besalisk",
    "average_lifespan" : "75",
    "films" : [
      "http:\/\/swapi.co\/api\/films\/5\/"
    ]
  },
  {
    "url" : "http:\/\/swapi.co\/api\/species\/32\/",
    "hair_colors" : "none",
    "classification" : "amphibian",
    "homeworld" : "http:\/\/swapi.co\/api\/planets\/10\/",
    "designation" : "sentient",
    "skin_colors" : "grey, blue",
    "name" : "Kaminoan",
    "eye_colors" : "black",
    "average_height" : "220",
    "edited" : "2014-12-20T21:36:42.202000Z",
    "created" : "2014-12-20T17:31:24.838000Z",
    "people" : [
      "http:\/\/swapi.co\/api\/people\/72\/",
      "http:\/\/swapi.co\/api\/people\/73\/"
    ],
    "language" : "Kaminoan",
    "average_lifespan" : "80",
    "films" : [
      "http:\/\/swapi.co\/api\/films\/5\/"
    ]
  },
  {
    "url" : "http:\/\/swapi.co\/api\/species\/33\/",
    "hair_colors" : "none",
    "classification" : "mammal",
    "homeworld" : "http:\/\/swapi.co\/api\/planets\/56\/",
    "designation" : "sentient",
    "skin_colors" : "grey, green",
    "name" : "Skakoan",
    "eye_colors" : "unknown",
    "average_height" : "unknown",
    "edited" : "2014-12-20T21:36:42.204000Z",
    "created" : "2014-12-20T17:53:54.515000Z",
    "people" : [
      "http:\/\/swapi.co\/api\/people\/76\/"
    ],
    "language" : "Skakoan",
    "average_lifespan" : "unknown",
    "films" : [
      "http:\/\/swapi.co\/api\/films\/5\/",
      "http:\/\/swapi.co\/api\/films\/6\/"
    ]
  },
  {
    "url" : "http:\/\/swapi.co\/api\/species\/34\/",
    "hair_colors" : "none",
    "classification" : "mammal",
    "homeworld" : "http:\/\/swapi.co\/api\/planets\/57\/",
    "designation" : "sentient",
    "skin_colors" : "grey, white",
    "name" : "Muun",
    "eye_colors" : "black",
    "average_height" : "190",
    "edited" : "2014-12-20T21:36:42.207000Z",
    "created" : "2014-12-20T17:58:19.088000Z",
    "people" : [
      "http:\/\/swapi.co\/api\/people\/77\/"
    ],
    "language" : "Muun",
    "average_lifespan" : "100",
    "films" : [
      "http:\/\/swapi.co\/api\/films\/5\/",
      "http:\/\/swapi.co\/api\/films\/6\/"
    ]
  },
  {
    "url" : "http:\/\/swapi.co\/api\/species\/35\/",
    "hair_colors" : "none",
    "classification" : "mammal",
    "homeworld" : "http:\/\/swapi.co\/api\/planets\/58\/",
    "designation" : "sentient",
    "skin_colors" : "red, white, orange, yellow, green, blue",
    "name" : "Togruta",
    "eye_colors" : "red, orange, yellow, green, blue, black",
    "average_height" : "180",
    "edited" : "2014-12-20T21:36:42.209000Z",
    "created" : "2014-12-20T18:44:03.246000Z",
    "people" : [
      "http:\/\/swapi.co\/api\/people\/78\/"
    ],
    "language" : "Togruti",
    "average_lifespan" : "94",
    "films" : [
      "http:\/\/swapi.co\/api\/films\/5\/",
      "http:\/\/swapi.co\/api\/films\/6\/"
    ]
  },
  {
    "url" : "http:\/\/swapi.co\/api\/species\/36\/",
    "hair_colors" : "none",
    "classification" : "reptile",
    "homeworld" : "http:\/\/swapi.co\/api\/planets\/59\/",
    "designation" : "sentient",
    "skin_colors" : "brown, orange, tan",
    "name" : "Kaleesh",
    "eye_colors" : "yellow",
    "average_height" : "170",
    "edited" : "2014-12-20T21:36:42.210000Z",
    "created" : "2014-12-20T19:45:42.537000Z",
    "people" : [
      "http:\/\/swapi.co\/api\/people\/79\/"
    ],
    "language" : "Kaleesh",
    "average_lifespan" : "80",
    "films" : [
      "http:\/\/swapi.co\/api\/films\/6\/"
    ]
  },
  {
    "url" : "http:\/\/swapi.co\/api\/species\/37\/",
    "hair_colors" : "none",
    "classification" : "mammal",
    "homeworld" : "http:\/\/swapi.co\/api\/planets\/12\/",
    "designation" : "sentient",
    "skin_colors" : "grey",
    "name" : "Pau'an",
    "eye_colors" : "black",
    "average_height" : "190",
    "edited" : "2014-12-20T21:36:42.212000Z",
    "created" : "2014-12-20T20:35:06.777000Z",
    "people" : [
      "http:\/\/swapi.co\/api\/people\/83\/"
    ],
    "language" : "Utapese",
    "average_lifespan" : "700",
    "films" : [
      "http:\/\/swapi.co\/api\/films\/6\/"
    ]
  },
  {
    "url" : "http:\/\/swapi.co\/api\/species\/3\/",
    "hair_colors" : "black, brown",
    "classification" : "mammal",
    "homeworld" : "http:\/\/swapi.co\/api\/planets\/14\/",
    "designation" : "sentient",
    "skin_colors" : "gray",
    "name" : "Wookiee",
    "eye_colors" : "blue, green, yellow, brown, golden, red",
    "average_height" : "210",
    "edited" : "2015-01-30T21:23:03.074598Z",
    "created" : "2014-12-10T16:44:31.486000Z",
    "people" : [
      "http:\/\/swapi.co\/api\/people\/13\/",
      "http:\/\/swapi.co\/api\/people\/80\/"
    ],
    "language" : "Shyriiwook",
    "average_lifespan" : "400",
    "films" : [
      "http:\/\/swapi.co\/api\/films\/7\/",
      "http:\/\/swapi.co\/api\/films\/6\/",
      "http:\/\/swapi.co\/api\/films\/3\/",
      "http:\/\/swapi.co\/api\/films\/2\/",
      "http:\/\/swapi.co\/api\/films\/1\/"
    ]
  },
  {
    "url" : "http:\/\/swapi.co\/api\/species\/2\/",
    "hair_colors" : "n\/a",
    "classification" : "artificial",
    "homeworld" : null,
    "designation" : "sentient",
    "skin_colors" : "n\/a",
    "name" : "Droid",
    "eye_colors" : "n\/a",
    "average_height" : "n\/a",
    "edited" : "2015-04-17T06:59:43.869528Z",
    "created" : "2014-12-10T15:16:16.259000Z",
    "people" : [
      "http:\/\/swapi.co\/api\/people\/2\/",
      "http:\/\/swapi.co\/api\/people\/3\/",
      "http:\/\/swapi.co\/api\/people\/8\/",
      "http:\/\/swapi.co\/api\/people\/23\/",
      "http:\/\/swapi.co\/api\/people\/87\/"
    ],
    "language" : "n\/a",
    "average_lifespan" : "indefinite",
    "films" : [
      "http:\/\/swapi.co\/api\/films\/7\/",
      "http:\/\/swapi.co\/api\/films\/5\/",
      "http:\/\/swapi.co\/api\/films\/4\/",
      "http:\/\/swapi.co\/api\/films\/6\/",
      "http:\/\/swapi.co\/api\/films\/3\/",
      "http:\/\/swapi.co\/api\/films\/2\/",
      "http:\/\/swapi.co\/api\/films\/1\/"
    ]
  },
  {
    "url" : "http:\/\/swapi.co\/api\/species\/1\/",
    "hair_colors" : "blonde, brown, black, red",
    "classification" : "mammal",
    "homeworld" : "http:\/\/swapi.co\/api\/planets\/9\/",
    "designation" : "sentient",
    "skin_colors" : "caucasian, black, asian, hispanic",
    "name" : "Human",
    "eye_colors" : "brown, blue, green, hazel, grey, amber",
    "average_height" : "180",
    "edited" : "2015-04-17T06:59:55.850671Z",
    "created" : "2014-12-10T13:52:11.567000Z",
    "people" : [
      "http:\/\/swapi.co\/api\/people\/1\/",
      "http:\/\/swapi.co\/api\/people\/4\/",
      "http:\/\/swapi.co\/api\/people\/5\/",
      "http:\/\/swapi.co\/api\/people\/6\/",
      "http:\/\/swapi.co\/api\/people\/7\/",
      "http:\/\/swapi.co\/api\/people\/9\/",
      "http:\/\/swapi.co\/api\/people\/10\/",
      "http:\/\/swapi.co\/api\/people\/11\/",
      "http:\/\/swapi.co\/api\/people\/12\/",
      "http:\/\/swapi.co\/api\/people\/14\/",
      "http:\/\/swapi.co\/api\/people\/18\/",
      "http:\/\/swapi.co\/api\/people\/19\/",
      "http:\/\/swapi.co\/api\/people\/21\/",
      "http:\/\/swapi.co\/api\/people\/22\/",
      "http:\/\/swapi.co\/api\/people\/25\/",
      "http:\/\/swapi.co\/api\/people\/26\/",
      "http:\/\/swapi.co\/api\/people\/28\/",
      "http:\/\/swapi.co\/api\/people\/29\/",
      "http:\/\/swapi.co\/api\/people\/32\/",
      "http:\/\/swapi.co\/api\/people\/34\/",
      "http:\/\/swapi.co\/api\/people\/35\/",
      "http:\/\/swapi.co\/api\/people\/43\/",
      "http:\/\/swapi.co\/api\/people\/51\/",
      "http:\/\/swapi.co\/api\/people\/60\/",
      "http:\/\/swapi.co\/api\/people\/61\/",
      "http:\/\/swapi.co\/api\/people\/62\/",
      "http:\/\/swapi.co\/api\/people\/66\/",
      "http:\/\/swapi.co\/api\/people\/67\/",
      "http:\/\/swapi.co\/api\/people\/68\/",
      "http:\/\/swapi.co\/api\/people\/69\/",
      "http:\/\/swapi.co\/api\/people\/74\/",
      "http:\/\/swapi.co\/api\/people\/81\/",
      "http:\/\/swapi.co\/api\/people\/84\/",
      "http:\/\/swapi.co\/api\/people\/85\/",
      "http:\/\/swapi.co\/api\/people\/86\/"
    ],
    "language" : "Galactic Basic",
    "average_lifespan" : "120",
    "films" : [
      "http:\/\/swapi.co\/api\/films\/7\/",
      "http:\/\/swapi.co\/api\/films\/5\/",
      "http:\/\/swapi.co\/api\/films\/4\/",
      "http:\/\/swapi.co\/api\/films\/6\/",
      "http:\/\/swapi.co\/api\/films\/3\/",
      "http:\/\/swapi.co\/api\/films\/2\/",
      "http:\/\/swapi.co\/api\/films\/1\/"
    ]
  }
]